{
  "name": "",
  "css_prefix_text": "icon-",
  "css_use_suffix": false,
  "hinting": true,
  "units_per_em": 1000,
  "ascent": 850,
  "glyphs": [
    {
      "uid": "70660fb56c4e239adece859532f5ebf2",
      "css": "global",
      "code": 59395,
      "src": "custom_icons",
      "selected": true,
      "svg": {
        "path": "M826.7 188.7L538.3 21.5C487.7-7.7 423.3-7.7 372.7 21.5L82.8 188.7C32.2 219.3 0 273 0 332.8V665.6C0 725.5 32.2 780.7 82.8 809.8L371.2 977C397.2 992.3 424.8 998.5 454 998.5 483.1 998.5 510.7 990.8 536.8 977L825.2 809.8C875.8 780.7 908 725.5 908 665.6V332.8C911 273 878.8 219.3 826.7 188.7ZM363.5 125.8C369.6 128.8 374.2 131.9 381.9 135 365 144.2 365 144.2 358.9 164.1 355.8 156.4 352.8 151.8 349.7 145.7 335.9 145.7 322.1 147.2 309.8 147.2L352.8 121.2C355.8 122.7 360.4 124.2 363.5 125.8ZM834.4 667.2C834.4 699.4 817.5 728.5 789.9 745.4L711.7 791.4C710.1 788.3 707.1 786.8 705.5 782.2 702.5 776.1 693.3 774.5 688.7 769.9 676.4 759.2 664.1 756.1 650.3 766.9 639.6 760.7 628.8 757.7 618.1 751.5 608.9 745.4 602.8 743.9 593.6 751.5 589 742.3 584.4 739.3 575.2 745.4 562.9 754.6 547.5 759.2 542.9 776.1 536.8 774.5 533.7 773 527.6 771.5 529.1 786.8 530.7 800.6 533.7 814.4 536.8 829.8 535.3 842 521.5 852.8 515.3 857.4 510.7 865 507.7 871.2 506.1 875.8 504.6 885 507.7 886.5 515.3 894.2 512.3 898.8 507.7 904.9 507.7 904.9 507.7 906.4 506.1 906.4L498.5 911C470.9 926.4 437.1 926.4 409.5 911L121.2 743.9C93.6 728.5 76.7 697.9 76.7 665.6V332.8C76.7 329.8 76.7 325.2 76.7 322.1 76.7 322.1 76.7 322.1 78.2 322.1 89 329.8 99.7 337.4 110.4 345.1 118.1 349.7 116.6 355.8 108.9 360.4 105.8 357.4 101.2 355.8 98.2 352.8 96.6 352.8 96.6 352.8 95.1 354.3 96.6 358.9 96.6 365 98.2 369.6 98.2 371.2 99.7 374.2 99.7 375.8 98.2 389.6 95.1 403.4 95.1 417.2 95.1 427.9 98.2 440.2 101.2 450.9 102.8 455.5 108.9 458.6 110.4 463.2 118.1 478.5 127.3 490.8 142.6 501.5 150.3 506.1 156.4 513.8 161 519.9 168.7 532.2 176.4 546 184 559.8 185.6 562.9 187.1 566 187.1 569 184 575.2 188.7 578.2 193.3 579.8 200.9 584.4 207.1 589 208.6 598.2 208.6 599.7 211.7 602.8 213.2 604.3 214.7 604.3 214.7 604.3 216.3 602.8 214.7 598.2 214.7 592 211.7 585.9 205.5 573.6 197.9 561.3 190.2 549.1 185.6 541.4 184 533.7 181 526.1 182.5 526.1 182.5 524.5 184 524.5 188.7 527.6 196.3 530.7 196.3 533.7 197.9 546 205.5 552.1 211.7 561.3 220.9 573.6 230.1 585.9 239.3 598.2 240.8 599.7 240.8 599.7 242.3 601.2 257.7 610.4 266.9 622.7 268.4 641.1 269.9 653.4 274.5 662.6 286.8 668.7 299.1 674.8 312.9 682.5 325.2 688.7 334.4 693.3 345.1 696.3 355.8 693.3 368.1 688.7 377.3 693.3 385 702.5 397.2 717.8 414.1 723.9 434 723.9 441.7 740.8 450.9 757.7 469.3 766.9 477 771.5 483.1 776.1 487.7 782.2 493.9 789.9 501.5 786.8 504.6 777.6 506.1 774.5 506.1 769.9 506.1 766.9 483.1 768.4 472.4 762.3 467.8 742.3 467.8 739.3 467.8 734.7 469.3 733.1 478.5 731.6 477 725.5 473.9 719.3 469.3 710.1 463.2 699.4 458.6 690.2 457.1 691.7 457.1 691.7 455.5 693.3 447.9 693.3 441.7 693.3 434 693.3 431 694.8 427.9 696.3 423.3 697.9 421.8 696.3 420.2 696.3 418.7 694.8 423.3 681 429.4 667.2 434 653.4 435.6 648.8 437.1 642.6 435.6 641.1 432.5 638 426.4 636.5 421.8 638 411 638 406.4 645.7 403.4 654.9 398.8 667.2 395.7 670.2 381.9 670.2 363.5 670.2 352.8 664.1 345.1 647.2 339 635 339 621.2 340.5 608.9 342 598.2 340.5 589 340.5 578.2 340.5 575.2 342 572.1 343.6 570.6 349.7 566 355.8 562.9 362 558.3 369.6 550.6 386.5 547.5 395.7 550.6 398.8 552.1 404.9 553.7 408 552.1 411 550.6 411 546 411 542.9 414.1 542.9 418.7 544.5 421.8 542.9 432.5 538.3 441.7 544.5 452.5 547.5 458.6 549.1 464.7 550.6 469.3 553.7 469.3 552.1 470.9 552.1 470.9 550.6 472.4 556.7 475.5 561.3 477 567.5 480.1 575.2 481.6 582.8 486.2 589 487.7 592 492.3 592 496.9 595.1 498.5 592 501.5 589 501.5 585.9 501.5 575.2 500 564.4 500 553.7 500 552.1 496.9 549.1 493.9 547.5 484.7 542.9 483.1 535.3 487.7 529.1 492.3 523 500 516.9 507.7 513.8 518.4 509.2 527.6 503.1 532.2 492.3 533.7 487.7 536.8 481.6 538.3 475.5 536.8 473.9 533.7 472.4 529.1 469.3 532.2 461.7 533.7 454 536.8 444.8 546 450.9 555.2 450.9 555.2 443.3 555.2 431 562.9 431 570.6 429.4 579.8 426.4 589 423.3 587.4 411 587.4 408 593.6 403.4 596.6 401.8 608.9 395.7 621.2 391.1 633.4 385 638 381.9 645.7 378.8 641.1 371.2 638 366.6 635 362 631.9 358.9 635 357.4 639.6 354.3 644.2 352.8 635 343.6 625.8 345.1 616.6 348.2 608.9 351.2 601.2 357.4 592 362 601.2 337.4 653.4 323.6 679.4 337.4 688.7 331.3 696.3 325.2 705.5 322.1 716.3 319 722.4 314.4 719.3 305.2 714.7 300.6 708.6 297.5 707.1 292.9 702.5 283.7 696.3 282.2 687.1 283.7 677.9 285.3 670.2 282.2 668.7 274.5 665.6 259.2 653.4 251.5 647.2 237.7 645.7 233.1 639.6 230.1 636.5 234.7 630.4 245.4 618.1 243.9 610.4 250 604.3 246.9 599.7 245.4 595.1 242.3 598.2 230.1 593.6 222.4 581.3 217.8 566 211.7 549.1 207.1 533.7 204 519.9 200.9 516.9 207.1 519.9 219.3 521.5 223.9 521.5 231.6 519.9 236.2 513.8 245.4 516.9 250 524.5 254.6 536.8 262.3 535.3 269.9 524.5 277.6 521.5 279.1 518.4 280.7 516.9 282.2 507.7 288.3 507.7 294.5 512.3 303.7 513.8 306.7 516.9 309.8 518.4 312.9 506.1 326.7 495.4 326.7 486.2 311.3 483.1 305.2 481.6 299.1 478.5 292.9 475.5 283.7 469.3 280.7 460.1 280.7 454 282.2 449.4 279.1 443.3 276.1 438.7 273 432.5 269.9 427.9 268.4 414.1 265.3 400.3 263.8 388 260.7 383.4 254.6 378.8 248.5 372.7 242.3 372.7 242.3 374.2 240.8 372.7 239.3 369.6 220.9 385 210.1 394.2 196.3 395.7 194.8 397.2 193.3 400.3 193.3 420.2 194.8 432.5 185.6 440.2 168.7 444.8 159.5 452.5 158 461.7 162.6 464.7 164.1 466.3 165.6 469.3 165.6 480.1 168.7 486.2 162.6 483.1 153.4 483.1 150.3 483.1 147.2 483.1 144.2 480.1 139.6 478.5 131.9 473.9 130.4 469.3 128.8 461.7 131.9 457.1 135 452.5 138 452.5 145.7 447.9 150.3 438.7 161 432.5 159.5 427.9 147.2 423.3 135 421.8 135 411 141.1 403.4 136.5 395.7 133.4 388 130.4 394.2 124.2 391.1 118.1 383.4 115 381.9 113.5 378.8 113.5 377.3 112L411 92C424.8 81.3 440.2 76.7 455.5 76.7S486.2 81.3 500 89L788.3 256.1C816 271.5 832.8 302.1 832.8 334.4V667.2Z",
        "width": 911
      },
      "search": [
        "global"
      ]
    },
    {
      "uid": "b062e4bd443e5eddbee3bf9271bfdc1b",
      "css": "local",
      "code": 59396,
      "src": "custom_icons",
      "selected": true,
      "svg": {
        "path": "M425 217.4C363.3 217.4 305.8 251.1 274.9 304.3 244 357.6 244 423.6 274.9 478.3 305.8 531.6 363.3 565.2 425 565.2 486.7 565.2 544.2 531.6 575 478.3 605.9 425 605.9 359 575 304.3 544.2 251.1 486.7 217.4 425 217.4ZM502.1 436.2C502.1 436.2 502.1 436.2 502.1 436.2 486.7 464.2 457.2 481.1 425 481.1 392.7 481.1 363.3 464.2 347.8 436.2 332.4 408.1 332.4 374.5 347.8 346.4 363.3 318.4 392.7 301.5 425 301.5 457.2 301.5 486.7 318.4 502.1 346.4 517.5 374.5 517.5 408.1 502.1 436.2ZM701.3 87C670.4 33.7 612.9 0 551.2 0H298.7C237 0 179.5 33.7 148.7 87L22.4 304.3C-8.4 357.6-8.4 425 22.4 478.3L273.5 913C304.3 967.7 360.4 1000 423.6 1000 486.7 1000 542.8 967.7 573.6 913L824.7 478.3C855.5 425 855.5 357.6 824.7 304.3L701.3 87ZM753.2 436.2L502.1 871C486.7 899 457.2 915.8 425 915.8 392.7 915.8 363.3 899 347.8 871L96.8 436.2C81.3 408.1 81.3 374.5 96.8 346.4L223 129C238.4 101 267.9 84.2 298.7 84.2H551.2C583.5 84.2 612.9 101 628.3 129L754.6 346.4C770 374.5 770 408.1 753.2 436.2Z",
        "width": 850
      },
      "search": [
        "local"
      ]
    },
    {
      "uid": "f6793c8af73aebebb7fda24bda911cfc",
      "css": "mybeehive",
      "code": 59397,
      "src": "custom_icons",
      "selected": true,
      "svg": {
        "path": "M886.4 397.7C888 391.2 888 386.4 888 379.9V357.1C888 306.8 845.8 264.6 795.5 264.6H766.2C767.9 258.1 767.9 253.2 767.9 246.8V224C767.9 173.7 725.6 131.5 675.3 131.5H667.2C668.8 125 668.8 120.1 668.8 113.6V92.5C668.8 42.2 626.6 0 576.3 0H391.2C340.9 0 298.7 42.2 298.7 92.5V115.3C298.7 121.8 298.7 126.6 300.3 133.1H292.2C241.9 133.1 199.7 175.3 199.7 225.6V248.4C199.7 254.9 199.7 259.7 201.3 266.2H172.1C121.8 266.2 79.5 308.4 79.5 358.8V381.5C79.5 388 79.5 394.5 81.2 399.4 35.7 405.8 0 443.2 0 490.3V513C0 560.1 35.7 599 81.2 603.9 79.5 610.4 79.5 615.3 79.5 621.8V644.5C79.5 694.8 121.8 737 172.1 737H201.3C199.7 743.5 199.7 748.4 199.7 754.9V777.6C199.7 827.9 241.9 870.1 292.2 870.1H300.3C298.7 876.6 298.7 881.5 298.7 888V910.7C298.7 961 340.9 1003.2 391.2 1003.2H576.3C626.6 1003.2 668.8 961 668.8 910.7V888C668.8 881.5 668.8 876.6 667.2 870.1H675.3C725.6 870.1 767.9 827.9 767.9 777.6V754.9C767.9 748.4 767.9 743.5 766.2 737H795.5C845.8 737 888 694.8 888 644.5V621.8C888 615.3 888 608.8 886.4 603.9 931.8 597.4 967.5 560.1 967.5 513V490.3C965.9 441.6 931.8 402.6 886.4 397.7ZM373.4 92.5C373.4 82.8 381.5 76.3 389.6 76.3H574.7C584.4 76.3 590.9 84.4 590.9 92.5V115.3C590.9 125 582.8 131.5 574.7 131.5H391.2C381.5 131.5 375 123.4 375 115.3V92.5ZM274.4 224C274.4 214.3 282.5 207.8 290.6 207.8H673.7C683.4 207.8 689.9 215.9 689.9 224V246.8C689.9 256.5 681.8 263 673.7 263H292.2C282.5 263 276 254.9 276 246.8V224ZM592.5 907.5C592.5 917.2 584.4 923.7 576.3 923.7H391.2C381.5 923.7 375 915.6 375 907.5V884.7C375 875 383.1 868.5 391.2 868.5H576.3C586 868.5 592.5 876.6 592.5 884.7V907.5ZM691.6 776C691.6 785.7 683.4 792.2 675.3 792.2H292.2C282.5 792.2 276 784.1 276 776V753.2C276 743.5 284.1 737 292.2 737H675.3C685.1 737 691.6 745.1 691.6 753.2V776ZM154.2 357.1C154.2 347.4 162.3 340.9 170.5 340.9H795.5C805.2 340.9 811.7 349 811.7 357.1V379.9C811.7 389.6 803.6 396.1 795.5 396.1H170.5C160.7 396.1 154.2 388 154.2 379.9V357.1ZM811.7 642.9C811.7 652.6 803.6 659.1 795.5 659.1H170.5C160.7 659.1 154.2 651 154.2 642.9V620.1C154.2 610.4 162.3 603.9 170.5 603.9H795.5C805.2 603.9 811.7 612 811.7 620.1V642.9ZM891.2 511.4C891.2 521.1 883.1 527.6 875 527.6H92.5C82.8 527.6 76.3 519.5 76.3 511.4V488.6C76.3 478.9 84.4 472.4 92.5 472.4H875C884.7 472.4 891.2 480.5 891.2 488.6V511.4Z",
        "width": 966
      },
      "search": [
        "mybeehive"
      ]
    },
    {
      "uid": "2b4c2b1bfd13999f9f8f2f8062aa6c48",
      "css": "notification-new",
      "code": 59398,
      "src": "custom_icons",
      "selected": true,
      "svg": {
        "path": "M735.3 328.8L511.6 199.2C525.2 178.7 533.4 154.2 533.4 128.2 533.4 57.3 476.1 0 405.2 0S276.9 57.3 276.9 128.2C276.9 154.2 285.1 178.7 298.8 199.2L73.7 328.8C28.6 354.7 0 403.8 0 457V753.1C0 806.3 28.6 855.4 73.7 881.3 79.1 884 84.6 885.4 90 885.4H259.2C275.6 950.9 332.9 998.6 403.8 998.6 473.4 998.6 532.1 949.5 548.4 885.4H717.6C723.1 885.4 729.9 884 734 881.3 779 855.4 807.6 806.3 807.6 753.1V457C810.4 403.8 781.7 354.7 735.3 328.8ZM405.2 68.2C437.9 68.2 465.2 95.5 465.2 128.2 465.2 141.9 461.1 154.2 454.3 163.7 437.9 158.3 421.6 155.5 405.2 155.5S372.4 158.3 356.1 163.7C349.2 154.2 345.2 141.9 345.2 128.2 343.8 95.5 371.1 68.2 405.2 68.2ZM107.8 387.4L364.3 238.7C388.8 225.1 418.8 225.1 443.4 238.7L699.9 387.4C724.4 401.1 739.4 428.4 739.4 457V680.8H68.2V457C68.2 428.4 83.2 401.1 107.8 387.4ZM405.2 931.8C373.8 931.8 345.2 912.7 332.9 886.8H477.5C463.8 912.7 436.6 931.8 405.2 931.8ZM708 817.2H525.2C523.9 817.2 521.1 817.2 519.8 817.2H290.6C287.9 817.2 286.5 817.2 285.1 817.2H101C80.5 802.2 68.2 779 68.2 753.1V749H742.2V753.1C742.2 779 728.5 802.2 708 817.2Z",
        "width": 941
      },
      "search": [
        "notification-new"
      ]
    },
    {
      "uid": "05edfc79b6fdb7a79285020ce5c6c9f5",
      "css": "notification",
      "code": 59399,
      "src": "custom_icons",
      "selected": true,
      "svg": {
        "path": "M735.3 328.8L511.6 199.2C525.2 178.7 533.4 154.2 533.4 128.2 533.4 57.3 476.1 0 405.2 0S276.9 57.3 276.9 128.2C276.9 154.2 285.1 178.7 298.8 199.2L73.7 328.8C28.6 354.7 0 403.8 0 457V753.1C0 806.3 28.6 855.4 73.7 881.3 79.1 884 84.6 885.4 90 885.4H259.2C275.6 950.9 332.9 998.6 403.8 998.6 473.4 998.6 532.1 949.5 548.4 885.4H717.6C723.1 885.4 729.9 884 734 881.3 779 855.4 807.6 806.3 807.6 753.1V457C810.4 403.8 781.7 354.7 735.3 328.8ZM405.2 68.2C437.9 68.2 465.2 95.5 465.2 128.2 465.2 141.9 461.1 154.2 454.3 163.7 437.9 158.3 421.6 155.5 405.2 155.5S372.4 158.3 356.1 163.7C349.2 154.2 345.2 141.9 345.2 128.2 343.8 95.5 371.1 68.2 405.2 68.2ZM107.8 387.4L364.3 238.7C388.8 225.1 418.8 225.1 443.4 238.7L699.9 387.4C724.4 401.1 739.4 428.4 739.4 457V680.8H68.2V457C68.2 428.4 83.2 401.1 107.8 387.4ZM405.2 931.8C373.8 931.8 345.2 912.7 332.9 886.8H477.5C463.8 912.7 436.6 931.8 405.2 931.8ZM708 817.2H525.2C523.9 817.2 521.1 817.2 519.8 817.2H290.6C287.9 817.2 286.5 817.2 285.1 817.2H101C80.5 802.2 68.2 779 68.2 753.1V749H742.2V753.1C742.2 779 728.5 802.2 708 817.2Z",
        "width": 810
      },
      "search": [
        "notification"
      ]
    },
    {
      "uid": "c2994f2a61ba540176a8d5748f93c92f",
      "css": "research",
      "code": 59400,
      "src": "custom_icons",
      "selected": true,
      "svg": {
        "path": "M552.9 892.1L393.6 615.6C392.6 614.6 392.6 612.5 392.6 610.5V311.4C392.6 272.4 360.7 239.5 320.7 239.5H242.5C203.5 239.5 170.6 271.3 170.6 311.4V610.5C170.6 612.5 170.6 613.6 169.6 615.6L9.2 892.1C-4.1 914.7-4.1 941.4 9.2 964 22.6 986.6 45.2 1000 70.9 1000H489.2C514.9 1000 538.5 986.6 550.9 964 565.3 941.4 565.3 914.7 552.9 892.1ZM232.3 610.5V311.4C232.3 306.3 236.4 301.1 242.5 301.1H320.7C325.8 301.1 330.9 305.2 330.9 311.4V610.5C330.9 622.8 334 635.1 340.2 646.5L367.9 694.8H194.2L222 646.5C228.2 635.1 232.3 622.8 232.3 610.5ZM499.5 933.2C498.5 935.3 495.4 938.3 491.3 938.3H71.9C66.8 938.3 64.7 935.3 63.7 933.2 62.7 931.1 61.7 927 63.7 922.9L159.3 756.4H401.8C401.8 756.4 402.9 756.4 402.9 756.4L498.5 922.9C501.5 927 500.5 931.1 499.5 933.2ZM277.5 99.7V143.9C277.5 150.1 280.6 155.2 285.7 158.3L323.7 179.9C328.9 182.9 335 182.9 340.2 179.9L378.2 158.3C383.4 155.2 386.4 150.1 386.4 143.9V99.7C386.4 93.5 383.4 88.4 378.2 85.3L340.2 63.7C335 60.6 328.9 60.6 323.7 63.7L285.7 85.3C280.6 88.4 277.5 93.5 277.5 99.7ZM180.9 164.4L201.4 176.8C204.5 178.8 207.6 178.8 210.7 176.8L231.2 164.4C234.3 162.4 235.4 160.3 235.4 156.2V132.6C235.4 129.5 233.3 126.4 231.2 124.4L210.7 112C207.6 110 204.5 110 201.4 112L180.9 124.4C177.8 126.4 176.8 128.5 176.8 132.6V156.2C176.8 159.3 177.8 162.4 180.9 164.4ZM209.7 73L238.4 89.4C242.5 91.5 246.7 91.5 250.8 89.4L279.5 73C283.7 70.9 285.7 66.8 285.7 61.7V28.8C285.7 24.7 283.7 20.6 279.5 17.5L250.8 1C246.7-1 242.5-1 238.4 1L209.7 17.5C205.5 19.5 203.5 23.6 203.5 28.8V61.7C203.5 66.8 206.6 70.9 209.7 73Z",
        "width": 562
      },
      "search": [
        "research"
      ]
    },
    {
      "uid": "c6fdb88abcd0dfecbf6c2d4e86ca17bc",
      "css": "search",
      "code": 59401,
      "src": "custom_icons",
      "selected": true,
      "svg": {
        "path": "M787.9 921L632 650.7C634.1 648.6 636.2 644.5 638.3 642.4L760.9 430.4C785.9 384.6 785.9 330.6 760.9 284.8L638.3 72.8C613.3 27 565.5 0 513.5 0H268.2C216.2 0 168.4 27 141.4 72.8L18.7 284.8C-6.2 330.6-6.2 386.7 18.7 430.4L141.4 642.4C166.3 688.1 216.2 715.2 268.2 715.2H513.5C526 715.2 536.4 713.1 546.8 711L698.5 975.1C708.9 991.7 725.6 1002.1 744.3 1002.1 752.6 1002.1 763 1000 769.2 995.8 794.2 979.2 802.5 945.9 787.9 921ZM268.2 611.2C253.6 611.2 239.1 602.9 232.8 590.4L110.2 378.4C101.9 365.9 101.9 349.3 110.2 336.8L230.8 124.7C239.1 112.3 251.6 104 266.1 104H511.4C526 104 540.5 112.3 546.8 124.7L669.4 336.8C677.8 349.3 677.8 365.9 669.4 378.4L546.8 590.4C538.5 602.9 526 611.2 511.4 611.2H268.2Z",
        "width": 796
      },
      "search": [
        "search"
      ]
    },
    {
      "uid": "4f1f85118304849d8feda6db95d65eda",
      "css": "speciality",
      "code": 59402,
      "src": "custom_icons",
      "selected": true,
      "svg": {
        "path": "M585.2 145.3L352 11.2C328.2-2.8 297.5-2.8 273.7 11.2 273.7 11.2 273.7 11.2 273.7 11.2L39.1 145.3C15.4 159.2 0 185.8 0 213.7V921.8C0 952.5 18.2 980.4 46.1 993 74 1005.6 107.5 1001.4 129.9 980.4L311.5 821.2 493 980.4C508.4 993 526.5 1000 544.7 1000 555.9 1000 567 997.2 576.8 993 604.7 980.4 622.9 952.5 622.9 921.8V213.7C624.3 185.8 608.9 159.2 585.2 145.3ZM540.5 910.6L364.5 755.6C349.2 743 331 736 312.8 736 294.7 736 275.1 743 261.2 755.6L83.8 910.6V216.5L311.5 85.2 539.1 216.5V910.6ZM286.3 180.2L252.8 247.2 178.8 258.4C167.6 259.8 159.2 266.8 156.4 277.9 153.6 287.7 156.4 298.9 163.4 307.3L216.5 358.9 203.9 433C202.5 444.1 206.7 453.9 215.1 460.9 219.3 465.1 226.3 466.5 231.8 466.5 236 466.5 240.2 465.1 244.4 463.7L310.1 428.8 375.7 463.7C385.5 469.3 396.6 467.9 405 460.9S417.6 444.1 416.2 433L403.6 358.9 456.7 307.3C463.7 300.3 466.5 289.1 463.7 277.9S451.1 259.8 441.3 258.4L367.3 247.2 333.8 180.2C329.6 170.4 319.8 164.8 308.7 164.8S291.9 170.4 286.3 180.2ZM347.8 300.3L379.9 304.5 356.1 326.8C349.2 333.8 346.4 342.2 347.8 352L353.4 384.1 324 368.7C319.8 365.9 315.6 365.9 311.5 365.9S303.1 367.3 298.9 368.7L269.6 384.1 275.1 352C276.5 343.6 273.7 333.8 266.8 326.8L243 304.5 275.1 300.3C284.9 298.9 291.9 293.3 296.1 284.9L310.1 255.6 324 284.9C331 293.3 338 298.9 347.8 300.3Z",
        "width": 624
      },
      "search": [
        "speciality"
      ]
    },
    {
      "uid": "0a0b91290d39e2e97360e115f665545a",
      "css": "success",
      "code": 59403,
      "src": "custom_icons",
      "selected": true,
      "svg": {
        "path": "M824 183.3L546.9 23.5C491.2-8.8 422.3-8.8 366.6 23.5L90.9 183.3C35.2 215.5 0 275.7 0 340.2V659.8C0 724.3 35.2 784.5 90.9 816.7L366.6 975.1C394.4 991.2 425.2 998.5 457.5 998.5 488.3 998.5 520.5 991.2 548.4 975.1L824 815.2C879.8 783 915 722.9 915 658.4V340.2C915 275.7 879.8 215.5 824 183.3ZM797.7 659.8C797.7 681.8 785.9 703.8 765.4 715.5L488.3 873.9C469.2 885.6 444.3 885.6 425.2 873.9 425.2 873.9 425.2 873.9 425.2 873.9L149.6 714.1C129 702.3 117.3 681.8 117.3 659.8V340.2C117.3 318.2 129 296.2 149.6 284.5L425.2 126.1C435.5 120.2 445.7 117.3 457.5 117.3 469.2 117.3 479.5 120.2 489.7 126.1L765.4 285.9C784.5 297.7 797.7 318.2 797.7 341.6V659.8ZM615.8 347.5L395.9 567.4 299.1 469.2C283 453.1 258.1 453.1 241.9 469.2 225.8 485.3 225.8 510.3 241.9 526.4L368 652.5C375.4 659.8 385.6 664.2 397.4 664.2S417.9 659.8 426.7 652.5C428.2 651 428.2 651 428.2 649.6L674.5 403.2C690.6 387.1 690.6 362.2 674.5 346 656.9 331.4 632 331.4 615.8 347.5Z",
        "width": 915
      },
      "search": [
        "success"
      ]
    },
    {
      "uid": "6ce359202ee5d36aed9bc97cd2bbeeeb",
      "css": "warning",
      "code": 59404,
      "src": "custom_icons",
      "selected": true,
      "svg": {
        "path": "M457.5 1000C426.7 1000 394.4 992.7 366.6 976.5L90.9 815.2C35.2 784.5 0 724.3 0 659.8V340.2C0 275.7 35.2 215.5 90.9 183.3L366.6 23.5C422.3-8.8 491.2-8.8 546.9 23.5L822.6 183.3C878.3 215.5 913.5 275.7 913.5 340.2V659.8C913.5 724.3 878.3 784.5 822.6 816.7L546.9 975.1C519.1 991.2 488.3 1000 457.5 1000ZM457.5 117.3C445.7 117.3 435.5 120.2 425.2 126.1L149.6 285.9C129 296.2 117.3 318.2 117.3 340.2V659.8C117.3 681.8 129 703.8 149.6 715.5L425.2 873.9C425.2 873.9 425.2 873.9 425.2 873.9 444.3 885.6 469.2 885.6 488.3 873.9L763.9 714.1C783 702.3 796.2 681.8 796.2 658.4V340.2C796.2 318.2 784.5 296.2 763.9 284.5L488.3 126.1C479.5 120.2 467.7 117.3 457.5 117.3ZM410.6 703.8C398.8 690.6 391.5 674.5 391.5 655.4 391.5 636.4 397.4 620.2 410.6 607 422.3 593.8 438.4 588 457.5 588 476.5 588 491.2 593.8 504.4 607 516.1 620.2 523.5 636.4 523.5 655.4 523.5 674.5 517.6 690.6 504.4 703.8 492.7 717 476.5 722.9 457.5 722.9 438.4 722.9 422.3 715.5 410.6 703.8ZM404.7 373.9L400.3 277.1H513.2L508.8 373.9 492.7 555.7H419.4L404.7 373.9Z",
        "width": 915
      },
      "search": [
        "warning"
      ]
    },
    {
      "uid": "c98e4b265be8f2a663bb476b5144e3f5",
      "css": "competition",
      "code": 59407,
      "src": "custom_icons",
      "selected": true,
      "svg": {
        "path": "M802.6 106.3C802.6 98.7 802.6 91.1 802.6 84.6V78.1H645.3V0H158.4V79.2H1.1L1.1 84.6C-1.1 155.1 4.3 220.2 18.4 284.2 27.1 324.3 41.2 375.3 73.8 420.8 95.4 451.2 122.6 470.7 155.1 480.5 161.6 482.6 163.8 484.8 164.9 491.3 183.3 573.8 233.2 632.3 310.2 665.9 321 670.3 333 674.6 344.9 677.9 349.2 679 352.5 680 356.8 681.1V911.1H198.5V1000H604.1V911.1H447.9V680L449 680C452.3 679 455.5 677.9 458.8 677.9 552.1 651.8 612.8 592.2 637.7 498.9 641 487 644.3 480.5 656.2 478.3 664.9 476.1 672.5 471.8 680 467.5L683.3 465.3C718 443.6 743 412.1 762.5 361.2 785.2 302.6 798.3 236.4 802.6 152.9 803.7 136.7 802.6 121.5 802.6 106.3ZM158.4 381.8C157.3 379.6 155.1 378.5 154 376.4 147.5 368.8 142.1 361.2 136.7 352.5 106.3 297.2 97.6 236.4 91.1 168.1L100.9 168.1C119.3 168.1 137.7 168.1 155.1 168.1 156.2 170.3 157.3 173.5 157.3 175.7 157.3 219.1 157.3 261.4 157.3 304.8L158.4 381.8ZM555.3 439.3C555.3 511.9 509.8 571.6 438.2 588.9 393.7 600.9 346 590 308 561.8 271.1 534.7 249.5 493.5 249.5 449 247.3 364.4 248.4 278.7 248.4 196.3 248.4 160.5 248.4 125.8 248.4 90 248.4 90 248.4 90 248.4 90H554.2C554.2 93.3 554.2 96.5 554.2 99.8L554.2 177.9C555.3 264.6 555.3 351.4 555.3 439.3ZM709.3 185.5C700.7 258.1 692 326.5 644.3 381.8 644.3 379.6 644.3 378.5 644.3 376.4L644.3 318.9C644.3 272.2 644.3 224.5 644.3 177.9 644.3 173.5 644.3 170.3 645.3 169.2 646.4 168.1 647.5 168.1 650.8 168.1 651.8 168.1 651.8 168.1 652.9 168.1 667 169.2 681.1 169.2 696.3 168.1 700.7 168.1 706.1 168.1 710.4 168.1 711.5 174.6 710.4 180 709.3 185.5ZM461 337.3L425.2 316.7C411.1 309.1 393.7 309.1 379.6 316.7L343.8 337.3C329.7 344.9 321 360.1 321 376.4V418.7C321 434.9 329.7 450.1 343.8 457.7L379.6 478.3C386.1 482.6 394.8 484.8 402.4 484.8 410 484.8 418.7 482.6 425.2 478.3L461 457.7C475.1 450.1 483.7 434.9 483.7 418.7V376.4C483.7 361.2 475.1 346 461 337.3ZM439.3 418.7C439.3 419.7 439.3 419.7 438.2 420.8L402.4 441.4C401.3 441.4 401.3 441.4 400.2 441.4L364.4 420.8C363.3 420.8 363.3 419.7 363.3 418.7V376.4C363.3 375.3 363.3 375.3 364.4 374.2L400.2 353.6C400.2 353.6 401.3 353.6 401.3 353.6 401.3 353.6 402.4 353.6 402.4 353.6L438.2 374.2C439.3 374.2 439.3 375.3 439.3 376.4V418.7Z",
        "width": 803
      },
      "search": [
        "competition"
      ]
    },
    {
      "uid": "4e7f9ab959a35ff543a125f5f4c68592",
      "css": "event",
      "code": 59408,
      "src": "custom_icons",
      "selected": true,
      "svg": {
        "path": "M727 97.6V88.8C727 39.5 687.5 0 638.2 0H559.2C509.9 0 470.4 39.5 470.4 88.8V96.5H425.4V88.8C425.4 39.5 386 0 336.6 0H257.7C208.3 0 168.9 39.5 168.9 88.8V99.8C72.4 118.4 0 201.8 0 302.6V793.9C0 907.9 92.1 1000 206.1 1000H703.9C818 1000 910.1 907.9 910.1 793.9V302.6C910.1 196.3 830 108.6 727 97.6ZM563.6 94.3H632.7V96.5 190.8 219.3H563.6V190.8 96.5 94.3ZM262.1 94.3H331.1V96.5 190.8 219.3H262.1V190.8 96.5 94.3ZM167.8 197.4V223.7C167.8 273 208.3 312.5 256.6 312.5H335.5C384.9 312.5 424.3 271.9 424.3 223.7V189.7H469.3V223.7C469.3 273 509.9 312.5 558.1 312.5H637.1C686.4 312.5 725.9 271.9 725.9 223.7V191.9C776.3 202.9 814.7 247.8 814.7 301.5V372.8H94.3V301.5C94.3 254.4 125 212.7 167.8 197.4ZM703.9 905.7H206.1C144.7 905.7 94.3 855.3 94.3 793.9V468.2H815.8V793.9C815.8 855.3 765.4 905.7 703.9 905.7ZM582.2 547.1L504.4 502.2C473.7 484.6 436.4 484.6 405.7 502.2L326.8 547.1C296.1 564.7 277.4 597.6 277.4 632.7V722.6C277.4 757.7 296.1 790.6 326.8 808.1L404.6 853.1C420 861.8 436.4 866.2 453.9 866.2 471.5 866.2 487.9 861.8 503.3 853.1L581.1 808.1C611.8 790.6 630.5 757.7 630.5 722.6V632.7C631.6 597.6 612.9 564.7 582.2 547.1ZM537.3 722.6C537.3 723.7 536.2 725.9 535.1 725.9L456.1 770.8C455 771.9 453.9 771.9 451.8 770.8L373.9 725.9C372.8 725.9 372.8 724.8 372.8 722.6V632.7C372.8 631.6 373.9 629.4 375 629.4L453.9 584.4C455 584.4 455 583.3 456.1 583.3 457.2 583.3 457.2 583.3 458.3 584.4L536.2 629.4C537.3 630.5 538.4 631.6 538.4 632.7V722.6Z",
        "width": 910
      },
      "search": [
        "event"
      ]
    },
    {
      "uid": "e0781e3c72a04bf758f472495b3e5209",
      "css": "question",
      "code": 59409,
      "src": "custom_icons",
      "selected": true,
      "svg": {
        "path": "M170.3 282.8C112.4 282.8 59 282.8 7.6 282.8-16.4 172.5 18.6 76.4 102.6 29.5 131 13.1 167 4.4 199.8 2.2 281.7-1.1 364.6 0 446.5 1.1 556.8 3.3 641.9 87.3 644.1 196.5 645.2 279.5 645.2 361.4 644.1 444.3 641.9 553.5 557.9 638.6 448.7 640.8 397.4 641.9 345 640.8 290.4 640.8 290.4 685.6 290.4 726 290.4 769.7 233.6 769.7 180.1 769.7 116.8 769.7 121.2 707.4 119 641.9 132.1 580.8 146.3 515.3 206.3 478.2 276.2 477.1 327.5 476 379.9 476 431.2 477.1 464 478.2 479.3 462.9 479.3 431.2 479.3 358.1 479.3 284.9 479.3 211.8 479.3 181.2 465.1 165.9 434.5 165.9 361.4 165.9 288.2 165.9 215.1 165.9 184.5 165.9 169.2 179 169.2 210.7 170.3 233.6 170.3 257.6 170.3 282.8ZM266.4 862.4L219.4 835.2C209.6 829.7 198.7 829.7 188.9 835.2L143 862.4C133.2 867.9 127.7 877.7 127.7 888.6V942.1C127.7 953.1 133.2 962.9 143 968.3L190 995.6C194.3 997.8 199.8 1000 205.2 1000 210.7 1000 216.2 998.9 220.5 995.6L267.5 968.3C277.3 962.9 282.8 953.1 282.8 942.1V888.6C281.7 877.7 276.2 867.9 266.4 862.4Z",
        "width": 645
      },
      "search": [
        "question"
      ]
    },
    {
      "uid": "e3f2f203e63933a5cd7a749e825ce513",
      "css": "resize",
      "code": 59410,
      "src": "custom_icons",
      "selected": true,
      "svg": {
        "path": "M824 183.3L546.9 23.5C491.2-8.8 422.3-8.8 366.6 23.5L90.9 183.3C35.2 215.5 0 275.7 0 340.2V659.8C0 724.3 35.2 784.5 90.9 816.7L366.6 975.1C394.4 991.2 425.2 998.5 457.5 998.5 488.3 998.5 520.5 991.2 548.4 975.1L824 815.2C879.8 783 915 722.9 915 658.4V340.2C915 275.7 879.8 215.5 824 183.3ZM797.7 659.8C797.7 681.8 785.9 703.8 765.4 715.5L488.3 873.9C469.2 885.6 444.3 885.6 425.2 873.9L425.2 873.9 149.6 714.1C129 702.3 117.3 681.8 117.3 659.8V340.2C117.3 318.2 129 296.2 149.6 284.5L425.2 126.1C435.5 120.2 445.7 117.3 457.5 117.3 469.2 117.3 479.5 120.2 489.7 126.1L765.4 285.9C784.5 297.7 797.7 318.2 797.7 341.6V659.8ZM752.2 376.8C752.2 375.4 752.2 372.4 752.2 371 752.2 369.5 752.2 368 750.7 366.6 750.7 365.1 749.3 363.6 749.3 362.2 749.3 360.7 747.8 359.2 747.8 357.8 747.8 356.3 746.3 354.8 744.9 353.4 743.4 351.9 743.4 350.4 741.9 349 740.5 347.5 740.5 346 739 344.6 737.5 343.1 737.5 341.6 736.1 341.6 734.6 340.2 733.1 340.2 731.7 338.7 730.2 337.2 728.7 335.8 727.3 335.8 727.3 335.8 725.8 335.8 725.8 334.3L561.6 239C536.7 224.3 505.9 233.1 491.2 258.1 476.5 283 485.3 313.8 510.3 328.4L649.6 409.1V568.9C649.6 596.8 673 620.2 700.9 620.2S752.2 596.8 752.2 568.9V378.3C753.7 376.8 752.2 376.8 752.2 376.8ZM176 639.3C176 640.8 176 643.7 176 645.2 176 646.6 176 648.1 177.4 649.6 177.4 651 178.9 652.5 178.9 654 178.9 655.4 180.4 656.9 180.4 658.4 180.4 659.8 181.8 661.3 183.3 662.8 184.8 664.2 184.8 665.7 186.2 667.2 187.7 668.6 187.7 670.1 189.1 671.6 190.6 673 190.6 674.5 192.1 674.5 193.5 676 195 676 196.5 677.4 197.9 678.9 199.4 680.4 200.9 680.4 200.9 680.4 202.3 680.4 202.3 681.8L366.6 777.1C391.5 791.8 422.3 783 437 758.1 451.6 733.1 442.8 702.3 417.9 687.7L278.6 608.5V448.7C278.6 420.8 255.1 397.4 227.3 397.4S176 419.4 176 448.7V637.8C176 637.8 176 639.3 176 639.3Z",
        "width": 915
      },
      "search": [
        "resize"
      ]
    },
    {
      "uid": "f056e822e47e90abe3c042f4a66ad000",
      "css": "spread",
      "code": 59411,
      "src": "custom_icons",
      "selected": true,
      "svg": {
        "path": "M355.9 452L581.9 329.7 669.2 379.9C680.1 386.5 692.1 389.7 704.1 389.7 716.2 389.7 728.2 386.5 739.1 379.9L847.2 317.7C869 304.6 882.1 281.7 882.1 256.6V132.1C882.1 107 869 84.1 847.2 71L739.1 8.7C717.2-4.4 690-4.4 668.1 8.7L560 71C538.2 84.1 525.1 107 525.1 132.1V222.7L295.9 347.2 210.7 298C188.9 284.9 161.6 284.9 139.7 298L34.9 360.3C13.1 373.4 0 396.3 0 421.4V545.9C0 571 13.1 593.9 34.9 607L143 669.2C153.9 675.8 165.9 679 177.9 679 190 679 202 675.8 212.9 669.2L289.3 624.5 526.2 767.5V866.8C526.2 891.9 539.3 914.8 561.1 927.9L669.2 990.2C680.1 996.7 692.1 1000 704.1 1000 716.2 1000 728.2 996.7 739.1 990.2L847.2 927.9C869 914.8 882.1 891.9 882.1 866.8V742.4C882.1 717.2 869 694.3 847.2 681.2L739.1 619C717.2 605.9 690 605.9 668.1 619L590.6 665.9 355.9 524V452Z",
        "width": 883
      },
      "search": [
        "spread"
      ]
    },
    {
      "uid": "0464d6f35a7fe587434173f42ddace88",
      "css": "thumbs-up",
      "code": 59405,
      "src": "elusive"
    },
    {
      "uid": "3849753858193b4d6e07afa834aff979",
      "css": "thumbs-down",
      "code": 59406,
      "src": "elusive"
    },
    {
      "uid": "2ae040a98998e1497aa0c5ddbacaf3c0",
      "css": "comment-alt2",
      "code": 59412,
      "src": "iconic"
    },
    {
      "uid": "ccddff8e8670dcd130e3cb55fdfc2fd0",
      "css": "down-open",
      "code": 59413,
      "src": "fontawesome"
    },
    {
      "uid": "22cfc7af2c4f158b37317c65c92b48c2",
      "css": "location",
      "code": 59414,
      "src": "elusive"
    },
    {
      "uid": "cc05df515bebe11df3ada0a5910a8f6d",
      "css": "box",
      "code": 59415,
      "src": "entypo"
    },
    {
      "uid": "1dq4tek4k8ea7zlj4kc3w83itnutaxg5",
      "css": "cancel",
      "code": 59392,
      "src": "typicons"
    },
    {
      "uid": "750058837a91edae64b03d60fc7e81a7",
      "css": "ellipsis-vert",
      "code": 61762,
      "src": "fontawesome"
    },
    {
      "uid": "jh3jpcb1t1bcm80gidkadilh080aq79h",
      "css": "menu",
      "code": 59417,
      "src": "typicons"
    },
    {
      "uid": "107ce08c7231097c7447d8f4d059b55f",
      "css": "ellipsis",
      "code": 61761,
      "src": "fontawesome"
    },
    {
      "uid": "fb1c799ffe5bf8fb7f8bcb647c8fe9e6",
      "css": "right-dir",
      "code": 59418,
      "src": "fontawesome"
    },
    {
      "uid": "d139ce97a43aedd333fa40f776328c3c",
      "css": "user-delete",
      "code": 59419,
      "src": "typicons"
    },
    {
      "uid": "9c9ab655a6cf0a7c55102f5e00bc41ef",
      "css": "bees",
      "code": 59420,
      "src": "custom_icons",
      "selected": true,
      "svg": {
        "path": "M1253.8 330L1253.8 330C1241.7 272.8 1206.6 221.7 1160.5 190.6 1152.5 185.6 1143.4 180.5 1134.4 175.5L1031.1 62.2C1034.1 55.2 1035.1 48.1 1034.1 40.1 1032.1 31.1 1027.1 24.1 1019.1 19.1 1011 14 1002 12 994 14 985 16 977.9 21.1 972.9 29.1 967.9 37.1 965.9 46.1 967.9 54.2 970.9 69.2 984 80.2 999 81.2L1065.2 154.5C1053.2 152.5 1041.1 152.5 1029.1 152.5L938.8 52.2C940.8 45.1 941.8 38.1 939.8 32.1 937.8 22.1 931.8 13 922.8 7 913.7 1 902.7-1 892.7 1 882.6 3 872.6 9 867.6 18.1 861.6 27.1 860.6 38.1 860.6 47.1 860.6 58.2 870.6 67.2 878.6 73.2 886.7 78.2 899.7 81.2 909.7 79.2 910.7 79.2 911.7 79.2 912.7 78.2L987 160.5 902.7 176.5C893.7 165.5 883.7 152.5 869.6 137.4L862.6 129.4C858.6 124.4 853.6 118.4 849.5 113.3 822.5 80.2 790.4 42.1 738.2 53.2 721.2 57.2 705.1 64.2 692.1 75.2 678 70.2 663 69.2 646.9 72.2 587.8 84.3 549.6 142.4 562.7 201.6 567.7 223.7 578.7 242.7 597.8 255.8 534.6 294.9 496.5 365.1 496.5 439.3 496.5 454.4 498.5 468.4 501.5 483.5 513.5 539.6 546.6 587.8 594.8 618.9 631.9 642.9 668 657 700.1 659 703.1 659 705.1 659 708.1 660L713.1 660C721.2 661 730.2 662 738.2 662 745.2 662 752.3 661 758.3 660L1090.3 590.8C1145.4 579.7 1193.6 545.6 1224.7 495.5 1254.8 445.3 1265.8 387.2 1253.8 330ZM1192.6 475.4C1166.5 516.5 1126.4 544.6 1080.2 554.7L933.8 584.8C905.7 527.6 885.7 470.4 872.6 409.2 859.6 346 854.6 281.8 859.6 222.7L1005 192.6C1009 191.6 1013 191.6 1017.1 190.6 1028.1 189.6 1040.1 188.6 1051.2 189.6 1072.2 191.6 1092.3 196.6 1112.3 205.6 1116.3 207.6 1120.4 209.6 1124.4 211.6 1129.4 214.6 1134.4 217.7 1139.4 220.7 1178.5 245.7 1207.6 289.9 1217.7 337 1227.7 385.2 1218.7 433.3 1192.6 475.4ZM627.9 455.4C639.9 512.5 659 569.7 683 618.9 661 613.8 637.9 603.8 612.8 586.8L612.8 586.8C592.8 573.7 575.7 557.7 562.7 537.6 549.6 518.6 540.6 496.5 535.6 473.4 520.6 400.2 551.7 326 613.8 285.9 610.8 342 615.8 399.2 627.9 455.4ZM757.3 132.4C747.2 120.4 736.2 106.3 724.2 96.3 730.2 92.3 737.2 90.3 744.2 88.3L744.2 88.3C748.2 87.3 751.3 87.3 755.3 87.3 778.3 87.3 795.4 106.3 821.5 136.4 825.5 141.4 830.5 147.4 835.5 152.5L842.5 160.5C850.6 169.5 856.6 177.5 862.6 184.6L811.4 195.6C802.4 184.6 791.4 171.5 778.3 156.5L771.3 148.4C766.3 143.4 762.3 137.4 757.3 132.4ZM750.3 180.5C758.3 189.6 764.3 197.6 770.3 204.6L665 226.7C655 228.7 644.9 231.7 633.9 235.7 611.8 226.7 599.8 213.6 595.8 194.6 591.8 175.5 595.8 156.5 605.8 139.4 616.9 123.4 632.9 112.3 652 108.3 656 107.3 660 107.3 663 107.3 666 107.3 669 107.3 671 108.3 678 109.3 685.1 113.3 693.1 119.4 704.1 128.4 716.1 142.4 728.2 157.5L731.2 160.5C735.2 164.5 738.2 169.5 742.2 173.5L750.3 180.5ZM710.1 253.8L764.3 242.7C760.3 301.9 765.3 366.1 778.3 429.3 791.4 490.5 810.4 547.6 839.5 604.8L785.4 615.8C757.3 559.7 736.2 500.5 724.2 440.3 710.1 378.1 706.1 312.9 710.1 253.8ZM373.1 536.6C389.2 510.5 395.2 480.4 389.2 451.4V451.4C383.1 422.3 365.1 395.2 341 379.1 337 376.1 333 374.1 328 371.1L277.8 314.9C278.8 311.9 279.8 307.9 278.8 303.9 277.8 298.9 274.8 294.9 270.8 291.9 266.8 288.9 260.8 287.9 255.8 288.9 250.8 289.9 246.7 292.9 243.7 296.9 240.7 300.9 239.7 306.9 240.7 311.9 242.7 320 249.7 326 257.8 327L285.9 358.1C281.8 358.1 278.8 358.1 274.8 358.1L229.7 310.9C230.7 307.9 230.7 303.9 229.7 300.9 228.7 294.9 224.7 289.9 219.7 286.9 214.6 283.9 208.6 282.8 202.6 283.9 196.6 284.9 191.6 288.9 188.6 293.9 185.6 298.9 184.6 304.9 184.6 309.9 184.6 314.9 188.6 321 194.6 325 199.6 328 206.6 329 211.6 328 211.6 328 211.6 328 211.6 328L244.7 365.1 209.6 371.1C205.6 366.1 199.6 359.1 193.6 352.1L190.6 349C188.6 346 186.6 344 183.6 341 169.5 324 152.5 303.9 124.4 309.9 116.3 311.9 108.3 314.9 101.3 321 94.3 319 86.3 318 78.2 320 47.1 326 27.1 357.1 33.1 388.2 35.1 399.2 41.1 408.2 49.1 415.2 19.1 434.3 0 469.4 0 506.5 0 514.5 1 521.6 2 529.6 8 558.7 25.1 583.8 50.2 599.8 69.2 612.8 88.3 619.9 104.3 620.9 105.3 620.9 107.3 620.9 108.3 620.9L110.3 620.9C114.3 620.9 119.4 621.9 123.4 621.9 127.4 621.9 130.4 621.9 134.4 620.9L301.9 585.8C332 579.7 356.1 562.7 373.1 536.6ZM60.2 435.3C59.2 461.4 62.2 488.5 67.2 515.5 73.2 542.6 82.2 570.7 93.3 593.8 84.3 590.8 74.2 586.8 63.2 579.7L63.2 579.7C53.2 573.7 45.1 565.7 38.1 555.7 32.1 546.6 27.1 535.6 25.1 524.6 18.1 490.5 32.1 455.4 60.2 435.3ZM163.5 381.1C159.5 376.1 153.5 369.1 147.4 362.1L144.4 358.1C142.4 355.1 140.4 353.1 137.4 350.1 133.4 345 128.4 339 123.4 334 125.4 333 127.4 332 129.4 332L129.4 332C131.4 332 132.4 331 134.4 331 145.4 331 153.5 340 165.5 355.1 167.5 358.1 169.5 360.1 172.5 363.1L176.5 367.1C179.5 370.1 181.5 373.1 184.6 376.1L163.5 381.1ZM121.4 367.1C123.4 369.1 124.4 371.1 126.4 373.1L129.4 377.1C132.4 380.1 134.4 383.1 137.4 386.2L88.3 396.2C83.2 397.2 78.2 398.2 73.2 400.2 63.2 396.2 58.2 390.2 56.2 381.1 54.2 372.1 56.2 363.1 61.2 355.1 66.2 347 74.2 342 83.2 340 85.3 341 86.3 341 88.3 341 89.3 341 90.3 341 92.3 341 95.3 342 99.3 343 102.3 346 108.3 350.1 113.3 357.1 120.4 365.1L121.4 367.1ZM113.3 415.2L135.4 410.2C133.4 439.3 136.4 471.4 142.4 502.5 148.4 531.6 158.5 560.7 171.5 588.8L150.5 593.8C136.4 565.7 126.4 536.6 120.4 507.5 114.3 476.4 112.3 444.3 113.3 415.2ZM283.9 383.1C293.9 384.2 303.9 387.2 313.9 391.2 315.9 392.2 318 393.2 320 394.2 323 395.2 325 397.2 327 399.2 346 411.2 360.1 433.3 365.1 456.4 370.1 479.4 365.1 503.5 352.1 524.6 339 544.6 320 558.7 296.9 563.7L224.7 578.7C210.6 550.7 200.6 522.6 194.6 492.5 188.6 461.4 185.6 429.3 187.6 400.2L258.8 385.2C260.8 385.2 262.8 384.2 264.8 384.2 272.8 383.1 277.8 383.1 283.9 383.1ZM670 849.5C665 823.5 648.9 799.4 626.9 785.4 622.9 783.4 619.9 780.3 614.8 778.3L571.7 730.2C572.7 727.2 572.7 724.2 572.7 720.2 571.7 715.1 568.7 711.1 564.7 709.1 560.7 706.1 555.7 706.1 551.7 707.1 546.6 708.1 542.6 711.1 540.6 715.1 537.6 719.2 537.6 724.2 538.6 728.2 540.6 735.2 546.6 741.2 553.7 742.2L577.7 768.3C574.7 768.3 572.7 768.3 569.7 768.3L530.6 725.2C531.6 722.2 531.6 719.2 530.6 716.1 529.6 711.1 526.6 706.1 521.6 703.1 516.5 700.1 511.5 699.1 506.5 700.1 501.5 701.1 496.5 704.1 493.5 709.1 490.5 714.1 489.5 719.2 489.5 723.2 489.5 728.2 492.5 733.2 498.5 737.2 502.5 740.2 509.5 741.2 514.5 740.2L542.6 772.3 511.5 778.3C507.5 773.3 503.5 768.3 497.5 762.3L494.5 759.3C492.5 757.3 490.5 754.3 488.5 752.3 475.4 736.2 461.4 719.2 436.3 724.2 429.3 726.2 422.3 729.2 416.2 733.2 410.2 731.2 403.2 731.2 396.2 732.2 368.1 738.2 351.1 765.3 356.1 793.4 358.1 802.4 362.1 810.4 369.1 816.4 342 834.5 326 865.6 326 898.7 326 905.7 327 912.7 328 918.8 333 944.8 348 966.9 370.1 980.9 387.2 992 403.2 998 418.3 999L424.3 1000C428.3 1000 432.3 1001 436.3 1001 439.3 1001 443.3 1001 446.3 1000L593.8 968.9C618.9 963.9 640.9 947.8 656 925.8 671 901.7 676 875.6 670 849.5L670 849.5ZM428.3 818.5L447.3 814.4C446.3 840.5 448.3 867.6 454.4 894.7 459.4 920.8 468.4 945.8 480.4 969.9L461.4 973.9C449.3 949.8 440.3 924.8 435.3 898.7 428.3 871.6 426.3 843.5 428.3 818.5ZM386.2 906.7C391.2 929.8 399.2 953.9 408.2 974.9 400.2 972.9 392.2 968.9 383.1 962.9L383.1 962.9C375.1 956.9 367.1 949.8 362.1 941.8 356.1 933.8 352.1 923.8 350.1 914.7 344 884.7 355.1 854.6 379.1 837.5 379.1 859.6 381.1 882.6 386.2 906.7ZM441.3 745.2C442.3 745.2 444.3 745.2 445.3 745.2 454.4 745.2 461.4 753.3 472.4 766.3 474.4 768.3 476.4 771.3 478.4 773.3L481.4 777.3C483.5 779.3 485.5 782.3 487.5 784.4L471.4 786.4C467.4 781.3 463.4 776.3 457.4 770.3L454.4 767.3C452.4 765.3 450.4 762.3 448.3 760.3 444.3 756.3 440.3 751.3 436.3 746.2 438.3 746.2 440.3 745.2 441.3 745.2L441.3 745.2ZM433.3 776.3C434.3 778.3 436.3 780.3 438.3 781.3L441.3 785.4C443.3 787.4 445.3 790.4 447.3 792.4L405.2 801.4C401.2 802.4 396.2 803.4 392.2 805.4 384.2 801.4 379.1 796.4 378.1 789.4 376.1 781.3 378.1 773.3 382.1 767.3 386.2 760.3 393.2 756.3 401.2 754.3 402.2 754.3 404.2 754.3 405.2 754.3 406.2 754.3 407.2 754.3 408.2 754.3 411.2 755.3 414.2 756.3 417.3 758.3 422.3 762.3 427.3 768.3 432.3 774.3L433.3 776.3ZM577.7 790.4C586.8 791.4 595.8 793.4 603.8 797.4 605.8 798.4 607.8 799.4 608.8 800.4 610.8 801.4 612.8 803.4 615.8 804.4 632.9 815.4 644.9 834.5 648.9 854.6 653 874.6 648.9 895.7 637.9 913.7 626.9 931.8 609.8 943.8 589.8 947.8L526.6 960.9C514.5 936.8 505.5 911.7 500.5 885.7 494.5 858.6 492.5 830.5 494.5 805.4L556.7 792.4C558.7 792.4 559.7 791.4 561.7 791.4 567.7 789.4 572.7 789.4 577.7 790.4Z",
        "width": 1258
      },
      "search": [
        "bees"
      ]
    },
    {
      "uid": "32e0a79e1625936e863327e42032298a",
      "css": "followers",
      "code": 59416,
      "src": "custom_icons",
      "selected": true,
      "svg": {
        "path": "M1231.9 362.6C1219 301.2 1181 244.4 1130.2 211 1110.7 198 1089.8 188 1068.8 181L983.5 86.3C988 79.3 989.5 70.8 988 62.8 986.5 54.4 981.5 47.4 974.6 42.9 967.6 38.4 959.1 36.4 950.6 38.4 942.1 39.9 935.2 44.9 930.7 51.9 926.2 58.9 924.7 67.3 926.2 75.8 929.2 90.8 942.6 101.2 957.1 101.2 957.1 101.2 957.1 101.2 957.6 101.2L1020.4 170.6C1009 169.6 998 169.1 987 169.6L881.8 52.9C884.8 45.9 885.8 37.9 884.3 29.9 882.3 20 876.3 11.5 867.8 6S849.4-1.5 839.4 0.5C829.4 2.5 821.4 8.5 815.5 17 810 25.4 806 35.9 811 45.9V45.9C811 55.9 818 64.3 826.4 69.8 832.9 73.8 838.9 76.3 846.4 76.3 848.9 76.3 851.9 75.8 854.4 75.3 856.4 74.8 858.4 74.3 860.3 73.3L951.1 174.6 845.4 196.5C834.4 182.5 821.4 167.1 806.5 150.1L799 141.1C794 135.2 789 129.2 784 123.7 753.1 85.8 720.7 46.4 664.8 58.4 644.9 62.3 627.4 71.3 613.5 83.8 599 77.8 582.5 75.8 563.1 79.8 500.7 92.8 460.3 154.1 473.3 217 479.3 246.4 496.3 265.3 517.2 278.3 429.4 328.7 383.5 430.4 404 529.7 416.5 590.5 452.4 642.9 504.7 677.3 545.6 704.2 584 718.7 619.5 720.7 624.4 721.2 628.9 721.7 633.9 722.2 642.4 723.2 651.9 724.2 661.3 724.2 668.3 724.2 675.3 723.7 682.8 722.2L1051.9 645.4C1176.1 619 1258.4 489.8 1231.9 362.6ZM853.4 42.9C851.9 44.9 849.9 46.4 847.9 46.9 845.4 47.4 843.4 46.9 841.4 45.9 839.4 44.4 837.9 42.4 837.4 40.4 836.9 37.9 837.4 35.9 838.9 33.9 840.4 31.9 842.4 30.4 844.4 29.9 846.9 29.4 848.9 29.9 850.9 30.9 852.9 32.4 854.4 34.4 854.9 36.4 855.4 38.9 854.9 40.9 853.4 42.9ZM670.8 87.3C675.3 86.3 679.8 85.8 683.8 85.8 712.7 85.8 732.7 108.2 761.1 142.6 766.1 148.6 771.1 154.6 776.1 160.6L784 169.6C795 182 804.5 193.5 812.5 203L742.6 217.5C731.7 203.5 718.7 188 703.7 171.1L696.3 162.6C691.3 156.6 686.3 150.6 681.3 145.1 668.3 129.2 654.9 112.7 639.4 100.2 648.9 94.3 659.4 89.8 670.8 87.3ZM618.5 121.2C631.4 131.2 643.9 146.1 658.9 164.1 663.8 170.1 668.8 176.1 673.8 182L681.3 191C692.3 204 701.7 215 710.2 224.9L645.4 238.4C623.4 228.4 608.5 214 603 189.5 598.5 164.6 605 140.1 618.5 121.2ZM501.7 211C491.8 164.1 522.2 118.2 568.6 108.7 573.1 107.7 577.6 107.2 581.5 107.2 585 107.2 588.5 107.7 591.5 108.2 575.1 133.2 568.1 164.1 574.6 195.5 579.1 218 590 234.4 604.5 246.9L584.5 250.9C573.1 253.4 561.6 256.9 549.1 261.8 524.7 251.9 507.2 237.4 501.7 211ZM680.3 707.7C660.8 711.7 639.9 707.2 620.9 706.2 589 647.9 563.1 574.1 547.6 499.8 532.2 425.4 527.7 352.6 533.7 286.3 533.7 286.3 533.7 285.8 533.7 285.3 550.6 276.8 569.1 268.8 588.5 264.8L628.9 256.4C628.9 256.4 629.4 260.3 629.4 260.3 622.9 328.7 627.4 407.5 643.4 484.8 659.4 562.1 686.3 632.9 720.7 698.3L680.3 707.7ZM792 684.3C757.1 618.5 730.7 548.1 714.7 470.8 698.8 393.5 693.8 314.7 700.7 246.4 700.7 245.9 700.2 242.4 700.2 242.4L795 222.4C795 222.4 795.5 226.4 795.5 226.4 789 294.8 793.5 373.6 809.5 450.9 825.4 528.2 852.4 599 886.8 664.3L792 684.3ZM334.2 535.2C329.2 510.2 313.7 487.8 293.3 474.3 285.3 469.3 277.3 465.3 268.8 462.3L234.4 424.4C236.4 421.4 236.9 418.5 236.4 415 235.9 411.5 233.9 409 230.9 407 227.9 405 224.4 404.5 221.4 405 218 405.5 215.5 407.5 213.5 410.5 211.5 413.5 211 417 211.5 420 213 425.9 218 429.9 223.9 429.9 223.9 429.9 223.9 429.9 223.9 429.9L248.9 457.9C244.4 457.4 239.9 457.4 235.4 457.4L193.5 410.5C195 407.5 195 404.5 194.5 401.5 193.5 397.5 191.5 394 188 392 184.5 389.5 180.5 389 176.6 390 172.6 391 169.1 393 167.1 396.5 165.1 400 163.1 404 165.1 408V408C165.1 412 168.1 415.5 171.6 417.5 174.1 419 176.6 420 179.6 420 180.5 420 181.5 420 182.5 419.5 183.5 419.5 184 419 185 419L221.4 459.4 179.1 468.3C174.6 462.8 169.6 456.9 163.6 449.9L160.6 446.4C158.6 443.9 156.6 441.4 154.6 439.4 142.1 424.4 129.2 408.5 106.7 413 98.8 414.5 91.8 418.5 86.3 422.9 80.3 420.4 73.8 419.5 65.8 421.4 40.9 426.4 24.4 451.4 29.9 476.3 32.4 488.3 38.9 495.8 47.4 500.7 12.5 520.7-6 561.6 2 601.5 7 625.9 21.4 646.9 42.4 660.8 58.9 671.3 74.3 677.3 88.3 678.3 90.3 678.3 92.3 678.8 94.3 678.8 97.8 679.3 101.2 679.8 105.2 679.8 108.2 679.8 110.7 679.8 113.7 678.8L261.8 647.9C311.7 637.9 344.6 586 334.2 535.2ZM182 406.5C181.5 407.5 180.5 408 180 408 179.1 408 178.1 408 177.6 407.5 176.6 407 176.1 406 176.1 405.5 176.1 404.5 176.1 403.5 176.6 403 177.1 402 178.1 401.5 178.6 401.5 179.6 401.5 180.5 401.5 181 402 182 402.5 182.5 403.5 182.5 404.5 183 405 182.5 406 182 406.5ZM108.7 424.4C110.7 423.9 112.2 423.9 114.2 423.9 125.7 423.9 133.7 432.9 145.1 446.9 147.1 449.4 149.1 451.9 151.1 454.4L154.1 457.9C158.6 462.8 162.6 467.3 165.6 471.3L137.7 477.3C133.2 471.8 128.2 465.3 122.2 458.9L119.2 455.4C117.2 452.9 115.2 450.9 113.2 448.4 107.7 441.9 102.7 435.4 96.3 430.4 100.2 427.4 104.2 425.4 108.7 424.4ZM88.3 437.9C93.3 441.9 98.8 447.9 104.7 454.9 106.7 457.4 108.7 459.9 110.7 462.3L113.7 465.8C118.2 470.8 122.2 475.3 125.2 479.3L99.3 484.8C90.3 480.8 84.3 474.8 82.3 465.3 79.8 455.4 82.3 445.9 88.3 437.9ZM40.9 473.8C36.9 454.9 48.9 436.9 67.8 432.9 69.8 432.4 71.3 432.4 73.3 432.4 74.8 432.4 75.8 432.4 77.3 432.9 70.8 442.9 67.8 455.4 70.3 467.8 72.3 476.8 76.3 483.3 82.3 488.3L74.3 489.8C69.8 490.8 65.3 492.3 60.3 494.3 50.4 490.8 43.4 484.8 40.9 473.8ZM112.7 673.3C104.7 674.8 96.8 673.3 88.8 672.8 75.8 649.4 65.3 620 59.4 590 53.4 560.1 51.4 531.2 53.9 504.2 53.9 504.2 53.9 503.7 53.9 503.7 60.8 500.2 67.8 497.3 75.8 495.8L92.3 492.3C92.3 492.3 92.3 493.8 92.3 493.8 89.8 521.2 91.3 553.1 97.8 584 104.2 615 114.7 643.4 128.7 669.8L112.7 673.3ZM157.6 663.8C143.6 637.4 133.2 609 126.7 578.1 120.2 547.1 118.2 515.7 121.2 487.8 121.2 487.8 120.7 486.3 121.2 486.3L159.1 478.3C159.1 478.3 159.1 479.8 159.1 479.8 156.6 507.2 158.1 539.2 164.6 570.1 171.1 601 181.5 629.4 195.5 655.9L157.6 663.8ZM509.7 794C501.7 789 493.8 785 485.3 782L450.9 744.1C452.9 741.1 453.4 738.2 452.9 734.7 452.4 731.2 450.4 728.7 447.4 726.7 444.4 724.7 440.9 724.2 437.9 724.7 434.4 725.2 431.9 727.2 429.9 730.2 427.9 733.2 427.4 736.7 427.9 739.7 429.4 745.6 434.4 749.6 440.4 749.6 440.4 749.6 440.4 749.6 440.4 749.6L465.3 777.6C460.8 777.1 456.4 777.1 451.9 777.1L410 730.2C411.5 727.2 411.5 724.2 411 721.2 410 717.2 408 713.7 404.5 711.7 401 709.7 397 708.7 393 709.7 389 710.7 385.5 712.7 383.5 716.2 381 719.7 379.6 723.7 381.5 727.7V727.7C381.5 731.7 384.5 735.2 388 737.2 390.5 738.7 393 739.7 396 739.7 397 739.7 398 739.7 399 739.2 400 739.2 400.5 738.7 401.5 738.7L437.9 779.1 395.5 788C391 782.5 386 776.6 380 769.6L377.1 766.1C375.1 763.6 373.1 761.1 371.1 759.1 358.6 744.1 345.6 728.2 323.2 732.7 315.2 734.2 308.2 738.2 302.7 742.6 296.8 740.1 290.3 739.2 282.3 741.1 257.4 746.1 240.9 771.1 246.4 796 248.9 808 255.4 815.5 263.8 820.4 228.9 840.4 210.5 881.3 218.5 921.2 223.4 945.6 237.9 966.6 258.9 980.5 275.3 991 290.8 997 304.7 998 306.7 998 308.7 998.5 310.7 998.5 314.2 999 317.7 999.5 321.7 999.5 324.7 999.5 327.2 999.5 330.2 998.5L478.3 967.6C528.2 957.1 561.1 905.2 550.6 854.4 545.1 830.4 529.7 807.5 509.7 794ZM398.5 726.7C398 727.7 397 728.2 396 728.2 395 728.2 394 728.2 393.5 727.7 392.5 727.2 392 726.2 392 725.7 392 724.7 392 723.7 392.5 723.2 393 722.2 394 721.7 394.5 721.7 395.5 721.7 396.5 721.7 397 722.2 398 722.7 398.5 723.7 398.5 724.7 399 725.2 399 725.7 398.5 726.7ZM325.2 744.6C327.2 744.1 328.7 744.1 330.7 744.1 342.1 744.1 350.1 753.1 361.6 767.1 363.6 769.6 365.6 772.1 367.6 774.6L370.6 778.1C375.1 783 379.1 787.5 382 791.5L354.1 797.5C349.6 792 344.6 785.5 338.7 779.1L335.7 775.6C333.7 773.1 331.7 771.1 329.7 768.6 324.2 762.1 319.2 755.6 312.7 750.6 316.2 747.1 320.7 745.1 325.2 744.6ZM304.2 758.1C309.2 762.1 314.7 768.1 320.7 775.1 322.7 777.6 324.7 780 326.7 782.5L329.7 786C334.2 791 338.2 795.5 341.1 799.5L315.2 805C306.2 801 300.2 795 298.3 785.5 296.3 775.6 298.8 765.6 304.2 758.1ZM257.4 794C253.4 775.1 265.3 757.1 284.3 753.1 286.3 752.6 287.8 752.6 289.8 752.6 291.3 752.6 292.3 752.6 293.8 753.1 287.3 763.1 284.3 775.6 286.8 788 288.8 797 292.8 803.5 298.8 808.5L290.8 810C286.3 811 281.8 812.5 276.8 814.5 266.3 810.5 259.4 804.5 257.4 794ZM328.7 993.5C320.7 995 312.7 993.5 304.7 993 292.3 969.6 281.3 940.1 275.3 910.2 269.3 880.3 267.3 851.4 269.8 824.4 269.8 824.4 269.8 823.9 269.8 823.9 276.8 820.4 283.8 817.5 291.8 816L308.2 812.5C308.2 812.5 308.2 814 308.2 814 305.7 841.4 307.2 873.3 313.7 904.2 320.2 935.2 330.7 963.6 344.6 990L328.7 993.5ZM374.1 984C360.1 957.6 349.6 929.2 343.1 898.3 336.7 867.3 334.7 835.9 337.7 808 337.7 808 337.2 806.5 337.7 806.5L375.6 798.5C375.6 798.5 375.6 800 375.6 800 373.1 827.4 374.6 859.4 381 890.3 387.5 921.2 398 949.6 412 976.1L374.1 984ZM50.4 246.9C55.4 271.3 69.8 292.3 90.8 306.2 107.2 316.7 122.7 322.7 136.7 323.7 138.7 323.7 140.6 324.2 142.6 324.2 146.1 324.7 149.6 325.2 153.6 325.2 156.6 325.2 159.1 325.2 162.1 324.2L310.2 293.3C360.1 282.8 393 230.9 382.5 180 377.6 155.1 362.1 132.7 341.6 119.2 333.7 114.2 325.7 110.2 317.2 107.2L282.8 69.3C284.8 66.3 285.3 63.3 284.8 59.9 284.3 56.4 282.3 53.9 279.3 51.9 275.8 49.9 272.8 49.4 269.3 49.9 265.8 50.4 263.3 52.4 261.3 55.4 259.4 58.4 258.9 61.8 259.4 64.8 260.8 70.8 265.8 74.8 271.8 74.8 271.8 74.8 271.8 74.8 271.8 74.8L296.8 102.7C292.3 102.2 287.8 102.2 283.3 102.2L241.4 55.4C242.9 52.4 242.9 49.4 242.4 46.4 241.4 42.4 239.4 38.9 235.9 36.9S228.4 33.9 224.4 34.9C220.4 35.9 217 37.9 215 41.4 213 44.9 211 48.9 213 52.9V52.9C213 56.9 216 60.3 219.5 62.3 221.9 63.8 224.4 64.8 227.4 64.8 228.4 64.8 229.4 64.8 230.4 64.3 231.4 64.3 231.9 63.8 232.9 63.8L269.3 104.7 226.9 113.7C222.4 108.2 217.5 102.2 211.5 95.3L208.5 91.8C206.5 89.3 204.5 86.8 202.5 84.8 190 69.8 177.1 53.9 154.6 58.4 146.6 59.9 139.7 63.8 134.2 68.3 128.2 65.8 121.7 64.8 113.7 66.8 88.8 71.8 72.3 96.8 77.8 121.7 80.3 133.7 86.8 141.1 95.3 146.1 60.3 166.1 41.9 207 50.4 246.9ZM230.4 51.9C229.9 52.9 228.9 53.4 228.4 53.4 227.4 53.4 226.4 53.4 225.9 52.9 224.9 52.4 224.4 51.4 224.4 50.9 224.4 49.9 224.4 48.9 224.9 48.4 225.4 47.4 226.4 46.9 226.9 46.9 227.9 46.9 228.9 46.9 229.4 47.4 230.4 47.9 230.9 48.9 230.9 49.9 230.9 49.9 230.9 50.9 230.4 51.9ZM161.1 318.2C153.1 319.7 145.1 318.2 137.2 317.7 124.7 294.3 113.7 264.8 107.7 234.9 101.7 205 99.8 176.1 102.2 149.1 102.2 149.1 102.2 148.6 102.2 148.6 109.2 145.1 116.2 142.1 124.2 140.6L140.6 137.2C140.6 137.2 140.6 138.7 140.6 138.7 137.7 166.6 139.7 198.5 146.1 229.4 152.6 260.3 163.1 288.8 177.1 315.2L161.1 318.2ZM243.9 301.2L206 309.2C192 282.8 181.5 254.4 175.1 223.4 168.6 192.5 166.6 161.1 169.6 133.2 169.6 133.2 169.1 131.7 169.6 131.7L207.5 123.7C207.5 123.7 207.5 125.2 207.5 125.2 204.5 152.6 206 184.5 212.5 215.5 219 246.4 229.9 274.8 243.9 301.2ZM157.1 69.3C159.1 68.8 160.6 68.8 162.6 68.8 174.1 68.8 182 77.8 193.5 91.8 195.5 94.3 197.5 96.8 199.5 99.3L202.5 102.7C207 107.7 211 112.2 214 116.2L186 122.2C181.5 116.7 176.6 110.2 170.6 103.7L167.6 99.8C165.6 97.3 163.6 95.3 161.6 92.8 156.1 86.3 151.1 79.8 144.6 74.8 148.6 72.3 152.6 70.3 157.1 69.3ZM136.2 83.3C141.1 87.3 146.6 93.3 152.6 100.2 154.6 102.7 156.6 105.2 158.6 107.7L161.6 111.2C166.1 116.2 170.1 120.7 173.1 124.7L147.1 130.2C138.2 126.2 132.2 120.2 130.2 110.7 128.2 100.7 130.7 90.8 136.2 83.3ZM89.3 119.2C85.3 100.2 97.3 82.3 116.2 78.3 118.2 77.8 119.7 77.8 121.7 77.8 123.2 77.8 124.2 77.8 125.7 78.3 119.2 88.3 116.2 100.7 118.7 113.2 120.7 122.2 124.7 128.7 130.7 133.7L122.7 135.2C118.2 136.2 113.7 137.7 108.7 139.7 98.8 135.7 91.3 129.7 89.3 119.2Z",
        "width": 1237
      },
      "search": [
        "followers"
      ]
    },
    {
      "uid": "e08411c53ac23753e8da6a02d9ee5061",
      "css": "discussion",
      "code": 59393,
      "src": "custom_icons",
      "selected": true,
      "svg": {
        "path": "M875 199.7L569.8 22.7C516.2-8.1 448.1-8.1 394.5 22.7L87.7 199.7C34.1 232.1 0 290.6 0 352.3V704.5C0 741.9 8.1 862 108.8 862H181.8L240.3 969.2C241.9 972.4 243.5 974 245.1 977.3 258.1 991.9 274.4 1000 292.2 1000S326.3 991.9 339.3 977.3C340.9 975.6 342.5 972.4 344.2 969.2L402.6 862H853.9C928.6 862 962.7 767.9 962.7 704.5V352.3C964.3 290.6 930.2 232.1 875 199.7ZM883.1 706.2C883.1 743.5 865.3 779.2 855.5 782.5H379.9C365.3 782.5 350.6 790.6 344.2 803.6L292.2 897.7 240.3 803.6C233.8 790.6 219.2 782.5 204.5 782.5H107.1C81.2 782.5 79.5 719.2 79.5 706.2V352.3C79.5 318.2 97.4 287.3 126.6 269.5L435.1 94.2C449.7 86 465.9 81.2 482.1 81.2S514.6 86 529.2 94.2L834.4 271.1C863.6 287.3 881.5 319.8 881.5 353.9V706.2ZM724 340.9H238.6C215.9 340.9 198.1 358.8 198.1 381.5S215.9 422.1 238.6 422.1H724C746.8 422.1 764.6 404.2 764.6 381.5S746.8 340.9 724 340.9ZM724 459.4H238.6C215.9 459.4 198.1 477.3 198.1 500S215.9 540.6 238.6 540.6H724C746.8 540.6 764.6 522.7 764.6 500S746.8 459.4 724 459.4ZM444.8 577.9H238.6C215.9 577.9 198.1 595.8 198.1 618.5S215.9 659.1 238.6 659.1H444.8C467.5 659.1 485.4 641.2 485.4 618.5S467.5 577.9 444.8 577.9Z",
        "width": 964
      },
      "search": [
        "discussion"
      ]
    },
    {
      "uid": "e2fb4f965c6d90ab4bd549df1f92642d",
      "css": "error",
      "code": 59394,
      "src": "custom_icons",
      "selected": true,
      "svg": {
        "path": "M824 183.3L546.9 23.5C491.2-8.8 422.3-8.8 366.6 23.5L90.9 183.3C35.2 215.5 0 275.7 0 340.2V659.8C0 724.3 35.2 784.5 90.9 816.7L366.6 975.1C394.4 991.2 425.2 998.5 457.5 998.5 488.3 998.5 520.5 991.2 548.4 975.1L824 815.2C879.8 783 915 722.9 915 658.4V340.2C915 275.7 879.8 215.5 824 183.3ZM797.7 659.8C797.7 681.8 785.9 703.8 765.4 715.5L488.3 873.9C469.2 885.6 444.3 885.6 425.2 873.9 425.2 873.9 425.2 873.9 425.2 873.9L149.6 714.1C129 702.3 117.3 681.8 117.3 659.8V340.2C117.3 318.2 129 296.2 149.6 284.5L425.2 126.1C435.5 120.2 445.7 117.3 457.5 117.3 469.2 117.3 479.5 120.2 489.7 126.1L765.4 285.9C784.5 297.7 797.7 318.2 797.7 341.6V659.8ZM630.5 325.5C611.4 306.5 582.1 306.5 564.5 325.5L457.5 432.6 350.4 325.5C331.4 306.5 302.1 306.5 284.5 325.5 265.4 344.6 265.4 373.9 284.5 391.5L391.5 498.5 284.5 605.6C265.4 624.6 265.4 654 284.5 671.6 293.3 680.4 305 684.8 318.2 684.8 329.9 684.8 341.6 680.4 351.9 671.6L458.9 564.5 566 671.6C574.8 680.4 586.5 684.8 599.7 684.8S623.2 680.4 633.4 671.6C652.5 652.5 652.5 623.2 633.4 605.6L526.4 498.5 633.4 391.5C649.6 373.9 649.6 344.6 630.5 325.5Z",
        "width": 915
      },
      "search": [
        "error"
      ]
    },
    {
      "uid": "b0e21cfac59f47ec31821ff44d80e75e",
      "css": "discussion-new",
      "code": 59421,
      "src": "custom_icons",
      "selected": true,
      "svg": {
        "path": "M920.5 573.1C907.5 573.1 894.5 569.8 881.5 563.3V706.2C881.5 743.5 863.6 779.2 853.9 782.5H379.9C365.3 782.5 350.6 790.6 344.2 803.6L292.2 897.7 240.3 803.6C233.8 790.6 219.2 782.5 204.5 782.5H107.1C81.2 782.5 79.5 719.2 79.5 706.2V352.3C79.5 318.2 97.4 287.3 126.6 269.5L435.1 94.2C449.7 86 465.9 81.2 482.1 81.2S514.6 86 529.2 94.2L824.7 264.6C826.3 245.1 836 228.9 849 214.3 855.5 207.8 863.6 201.3 873.4 198.1L569.8 22.7C516.2-8.1 448.1-8.1 394.5 22.7L87.7 199.7C34.1 232.1 0 289 0 352.3V704.5C0 741.9 8.1 862 108.8 862H181.8L240.3 969.2C241.9 972.4 243.5 974 245.1 977.3 258.1 991.9 274.4 1000 292.2 1000S326.3 991.9 339.3 977.3C340.9 975.6 342.5 972.4 344.2 969.2L402.6 862H853.9C928.6 862 962.7 767.9 962.7 704.5V560.1C951.3 568.2 935.1 573.1 920.5 573.1ZM883.1 414C894.5 407.5 909.1 404.2 922.1 404.2 936.7 404.2 951.3 409.1 964.3 417.2V353.9C964.3 350.6 964.3 349 964.3 345.8 951.3 353.9 935.1 360.4 920.5 358.8 907.5 358.8 896.1 355.5 883.1 350.6 883.1 350.6 883.1 352.3 883.1 352.3V414ZM724 422.1H238.6C215.9 422.1 198.1 404.2 198.1 381.5S215.9 340.9 238.6 340.9H724C746.8 340.9 764.6 358.8 764.6 381.5S746.8 422.1 724 422.1ZM724 540.6H238.6C215.9 540.6 198.1 522.7 198.1 500S215.9 459.4 238.6 459.4H724C746.8 459.4 764.6 477.3 764.6 500S746.8 540.6 724 540.6ZM444.8 659.1H238.6C215.9 659.1 198.1 641.2 198.1 618.5S215.9 577.9 238.6 577.9H444.8C467.5 577.9 485.4 595.8 485.4 618.5S467.5 659.1 444.8 659.1ZM1024.4 340.9H961V277.6C961 254.9 943.2 237 920.5 237S879.9 254.9 879.9 277.6V340.9H816.6C793.8 340.9 776 358.8 776 381.5S795.5 422.1 818.2 422.1H881.5V485.4C881.5 508.1 899.4 526 922.1 526S962.7 508.1 962.7 485.4V422.1H1026C1048.7 422.1 1066.6 404.2 1066.6 381.5S1047.1 340.9 1024.4 340.9Z",
        "width": 1065
      },
      "search": [
        "discussion-new"
      ]
    },
    {
      "uid": "076f940ac56adee91dd43d6fd77dd0cf",
      "css": "user-add",
      "code": 59422,
      "src": "typicons"
    },
    {
      "uid": "103f627848b03fa33a5c7cef59d23a5f",
      "css": "discussion-new",
      "code": 59411,
      "src": "custom_icons",
      "selected": false,
      "svg": {
        "path": "M-9013 6571.4V6714.3C-9013 6751.6-9030.8 6787.3-9040.6 6790.6H-9516.2C-9530.8 6790.6-9545.5 6798.7-9551.9 6811.7L-9603.9 6905.8-9655.8 6811.7C-9662.3 6798.7-9676.9 6790.6-9691.6 6790.6H-9789C-9814.9 6790.6-9816.6 6727.3-9816.6 6714.3V6362C-9816.6 6327.9-9798.7 6297.1-9769.5 6279.2L-9464.3 6102.3C-9449.7 6094.2-9433.4 6089.3-9417.2 6089.3S-9384.7 6094.2-9370.1 6102.3L-9074.7 6272.7C-9073.1 6253.2-9063.3 6237-9050.3 6222.4-9043.8 6215.9-9035.7 6209.4-9026 6206.2L-9327.9 6032.5C-9381.5 6001.6-9449.7 6001.6-9503.2 6032.5L-9808.4 6209.4C-9862 6240.3-9896.1 6298.7-9896.1 6362V6714.3C-9896.1 6751.6-9888 6871.8-9787.3 6871.8H-9714.3L-9655.8 6978.9C-9654.2 6982.1-9652.6 6983.8-9651 6987-9638 7001.6-9621.8 7009.7-9603.9 7009.7S-9569.8 7001.6-9556.8 6987C-9555.2 6985.4-9553.6 6982.1-9551.9 6978.9L-9493.5 6871.8H-9042.2C-8967.5 6871.8-8933.4 6777.6-8933.4 6714.3V6569.8C-8946.4 6577.9-8961 6581.2-8975.6 6581.2-8987 6581.2-9001.6 6577.9-9013 6571.4ZM-9172.1 6349H-9657.5C-9680.2 6349-9698.1 6366.9-9698.1 6389.6S-9680.2 6430.2-9657.5 6430.2H-9172.1C-9149.4 6430.2-9131.5 6412.3-9131.5 6389.6S-9149.4 6349-9172.1 6349ZM-9131.5 6508.1C-9131.5 6485.4-9149.4 6467.5-9172.1 6467.5H-9657.5C-9680.2 6467.5-9698.1 6485.4-9698.1 6508.1S-9680.2 6548.7-9657.5 6548.7H-9172.1C-9149.4 6548.7-9131.5 6530.8-9131.5 6508.1ZM-9657.5 6586C-9680.2 6586-9698.1 6603.9-9698.1 6626.6S-9680.2 6667.2-9657.5 6667.2H-9451.3C-9428.6 6667.2-9410.7 6649.4-9410.7 6626.6S-9428.6 6586-9451.3 6586H-9657.5ZM-8871.8 6349H-8935.1V6285.7C-8935.1 6263-8952.9 6245.1-8975.6 6245.1S-9016.2 6263-9016.2 6285.7V6349H-9079.5C-9102.3 6349-9120.1 6366.9-9120.1 6389.6S-9102.3 6430.2-9079.5 6430.2H-9016.2V6493.5C-9016.2 6516.2-8998.4 6534.1-8975.6 6534.1S-8935.1 6516.2-8935.1 6493.5V6430.2H-8871.8C-8849 6430.2-8831.2 6412.3-8831.2 6389.6S-8849 6349-8871.8 6349Z",
        "width": 1065
      },
      "search": [
        "discussion-new"
      ]
    }
  ]
}