<!-- Generator: Adobe Illustrator 19.0.0, SVG Export Plug-In  -->
<svg version="1.1"
	 xmlns="http://www.w3.org/2000/svg" xmlns:xlink="http://www.w3.org/1999/xlink" xmlns:a="http://ns.adobe.com/AdobeSVGViewerExtensions/3.0/"
	 x="0px" y="0px" width="80.1px" height="122.7px" viewBox="0 0 80.1 122.7" style="enable-background:new 0 0 80.1 122.7;"
	 xml:space="preserve">
<style type="text/css">
	.st0{fill:#ffd21f;}
	.st1{fill:#FFE98D;}
	.st2{fill:#594a42;}
</style>
<defs>
</defs>
<g>
	<g>
		<path class="st0" d="M43.3,7.6c-1.1,0-2.2,0.1-3.2,0.4l-6.9,1.9c-0.2,0-0.4,0.1-0.6,0.1l-4.6,1.2c0,0,0,0,0,0
			c-4.2,1.1-7.5,4.5-8.7,8.7c0,0,0,0,0,0L18,24.6c-0.1,0.2-0.1,0.4-0.1,0.6L16,32.1c-1.1,4.2,0.1,8.8,3.2,11.9l4.4,4.4l4.4,4.4
			c2.3,2.3,5.4,3.6,8.7,3.6c1.1,0,2.2-0.1,3.2-0.4l6.9-1.9c0.2,0,0.4-0.1,0.6-0.1l4.6-1.2c0,0,0,0,0.1,0c4.2-1.1,7.5-4.5,8.7-8.7
			c0,0,0,0,0,0l1.2-4.6c0.1-0.2,0.1-0.4,0.1-0.6l1.9-6.9c1.1-4.3-0.1-8.8-3.2-11.9l-4.4-4.4L52,11.2C49.7,8.9,46.6,7.6,43.3,7.6z"/>
		<g>
			<path class="st1" d="M32.1,51.9l-4.4-4.4L23.2,43c-3.1-3.1-4.3-7.7-3.2-11.9l1.9-6.9c0-0.2,0.1-0.4,0.1-0.6l1.2-4.6c0,0,0,0,0,0
				c1.1-4.2,4.5-7.5,8.7-8.7c0,0,0,0,0,0L36.6,9c0.2-0.1,0.4-0.1,0.6-0.1l3.9-1.1c-0.4,0.1-0.7,0.1-1,0.2l-6.9,1.9
				c-0.2,0-0.4,0.1-0.6,0.1l-4.6,1.2c0,0,0,0,0,0c-4.2,1.1-7.5,4.5-8.7,8.7c0,0,0,0,0,0L18,24.6c-0.1,0.2-0.1,0.4-0.1,0.6L16,32.1
				c-1.1,4.2,0.1,8.8,3.2,11.9l4.4,4.4l4.4,4.4c2.3,2.3,5.4,3.6,8.7,3.6c1.1,0,2.2-0.1,3.2-0.4l3-0.8c-0.7,0.1-1.4,0.2-2.2,0.2
				C37.5,55.5,34.4,54.3,32.1,51.9z"/>
		</g>
		<path class="st2" d="M67.4,16.4l-5.8-5.8l-5.7-5.7l-0.3-0.3c0,0,0,0,0,0c-3-2.9-7-4.5-11.2-4.5c-1.4,0-2.8,0.2-4.2,0.6L31,3
			c-0.3,0.1-0.5,0.1-0.8,0.2l-6,1.6c0,0,0,0-0.1,0c-5.5,1.5-9.9,5.9-11.4,11.4c0,0,0,0,0,0.1l-1.6,6c-0.1,0.3-0.1,0.5-0.2,0.8
			l-2.4,9.1c-1.5,5.4,0,11.2,3.9,15.3c0,0,0,0,0,0l0.3,0.3c0,0,0,0,0,0l0.3,0.3l1.9,1.9c0,0,0,0,0,0l3.6,3.6l5.8,5.8
			c3.1,3.1,7.1,4.7,11.4,4.7c1.4,0,2.8-0.2,4.2-0.6l7.9-2.1c4.9-1.1,13.8-2.5,20.3,0.2l0,0c0.4,0.2,0.9,0.1,1.3-0.2
			c0.3-0.3,0.4-0.9,0.2-1.3l0,0c-2.7-6.6-1.3-15.5-0.2-20.4l0.9-3.5c0,0,0,0,0,0l0,0l1.1-4.3C73.1,26.4,71.5,20.4,67.4,16.4z
			 M16,32.1l1.9-6.9c0-0.2,0.1-0.4,0.1-0.6l1.2-4.6c0,0,0,0,0,0c1.1-4.2,4.5-7.5,8.7-8.7c0,0,0,0,0,0l4.6-1.2
			c0.2-0.1,0.4-0.1,0.6-0.1L40.1,8c1-0.3,2.1-0.4,3.2-0.4c3.3,0,6.3,1.3,8.7,3.6c0,0,0,0,0,0c2.8,3.1,3.8,7.4,2.7,11.4l-1.9,6.9
			c0,0.2-0.1,0.4-0.1,0.6l-1.2,4.6c0,0,0,0,0,0c-1.1,4.2-4.5,7.5-8.7,8.7c0,0,0,0-0.1,0l-4.6,1.2c-0.2,0.1-0.4,0.1-0.6,0.1l-6.9,1.9
			c-1,0.3-2.1,0.4-3.2,0.4c-3.2,0-6.1-1.2-8.4-3.3C16,40.7,14.9,36.3,16,32.1z M36.8,56.6c-2.5,0-5-0.8-7-2.2
			c0.3-0.1,0.5-0.1,0.8-0.2l9.1-2.4c0.3-0.1,0.5-0.1,0.8-0.2l6-1.6c0,0,0,0,0.1,0c5.5-1.5,9.9-5.9,11.4-11.4c0,0,0,0,0-0.1l1.6-6
			c0.1-0.3,0.1-0.5,0.2-0.8l2.4-9.1c0.1-0.2,0.1-0.5,0.2-0.7c2,2.9,2.7,6.7,1.8,10.2L62.2,39c0,0.2-0.1,0.4-0.1,0.6l-1.2,4.6
			c0,0,0,0,0,0c-1.1,4.2-4.5,7.5-8.7,8.7c0,0,0,0-0.1,0l-4.6,1.2c-0.2,0.1-0.4,0.1-0.6,0.1L40,56.1C39,56.4,37.9,56.6,36.8,56.6z"/>
	</g>
	<g>
		<g>
			<path class="st2" d="M0,93.4c0-0.2,0.1-0.5,0.4-0.5h1.8c0.2,0,0.4,0.1,0.4,0.4c0.1,1.6,0.9,2.4,2.5,2.4c1.4,0,2.1-0.8,2.1-1.9
				c0-3.1-7.1-2.3-7.1-7.3c0-2.5,1.9-4.3,4.6-4.3c3.3,0,4.7,2.1,4.8,4.5c0,0.2-0.1,0.4-0.4,0.4H7.4c-0.2,0-0.4-0.2-0.4-0.4
				c-0.1-1.2-0.8-2.1-2.1-2.1c-1.3,0-2.1,0.8-2.1,1.9c0,2.9,7.1,2.1,7.1,7.3c0,2.5-1.9,4.4-4.7,4.4C1.9,98.3,0.1,96.1,0,93.4z"/>
			<path class="st2" d="M12.6,93.3v-6c0-2.9,1.9-5,4.8-5c2.8,0,4.6,1.9,4.8,4.7c0,0.2-0.1,0.4-0.4,0.4H20c-0.2,0-0.4-0.1-0.4-0.4
				c-0.1-1.4-0.9-2.2-2.1-2.2c-1.3,0-2.2,1-2.2,2.4v6.2c0,1.4,0.8,2.4,2.2,2.4c1.3,0,2.1-0.9,2.2-2.4c0-0.3,0.2-0.4,0.4-0.4h1.8
				c0.2,0,0.4,0.2,0.4,0.5c-0.2,2.9-2.1,4.9-4.8,4.9C14.6,98.3,12.6,96.2,12.6,93.3z"/>
			<path class="st2" d="M25.1,79.1c0-0.9,0.6-1.6,1.6-1.6c0.9,0,1.6,0.7,1.6,1.6c0,0.8-0.7,1.6-1.6,1.6C25.7,80.7,25.1,80,25.1,79.1
				z M25.3,97.5V83c0-0.2,0.2-0.4,0.4-0.4h1.8c0.3,0,0.4,0.2,0.4,0.4v14.5c0,0.3-0.2,0.4-0.4,0.4h-1.8
				C25.5,97.9,25.3,97.8,25.3,97.5z"/>
			<path class="st2" d="M31.4,93.3v-6c0-2.9,1.9-4.9,4.9-4.9c2.9,0,4.9,2,4.9,4.8c0,2.7-2,4.6-4.9,4.6h-2.3v1.6
				c0,1.4,0.8,2.4,2.2,2.4c1.3,0,2.1-0.9,2.2-2.3c0-0.3,0.2-0.4,0.4-0.4h1.8c0.2,0,0.4,0.2,0.4,0.4c-0.2,2.9-2.1,4.8-4.8,4.8
				C33.4,98.3,31.4,96.3,31.4,93.3z M36.3,89.4c1.4,0,2.2-0.9,2.2-2.2c0-1.5-0.9-2.4-2.3-2.4c-1.4,0-2.2,1-2.2,2.4v2.2H36.3z"/>
			<path class="st2" d="M44.4,97.5V87.3c0-2.9,1.9-5,4.8-5c2.9,0,4.8,2.1,4.8,5v10.2c0,0.3-0.2,0.4-0.4,0.4h-1.8
				c-0.3,0-0.4-0.2-0.4-0.4V87.2c0-1.4-0.8-2.4-2.1-2.4c-1.3,0-2.1,1-2.1,2.4v10.3c0,0.3-0.2,0.4-0.4,0.4h-1.8
				C44.6,97.9,44.4,97.8,44.4,97.5z"/>
			<path class="st2" d="M57.6,93.3v-6c0-2.9,1.9-5,4.8-5c2.8,0,4.6,1.9,4.8,4.7c0,0.2-0.1,0.4-0.4,0.4H65c-0.2,0-0.4-0.1-0.4-0.4
				c-0.1-1.4-0.9-2.2-2.1-2.2c-1.3,0-2.2,1-2.2,2.4v6.2c0,1.4,0.8,2.4,2.2,2.4c1.3,0,2.1-0.9,2.2-2.4c0-0.3,0.2-0.4,0.4-0.4h1.8
				c0.2,0,0.4,0.2,0.4,0.5c-0.2,2.9-2.1,4.9-4.8,4.9C59.5,98.3,57.6,96.2,57.6,93.3z"/>
			<path class="st2" d="M70.2,93.3v-6c0-2.9,1.9-4.9,4.9-4.9c2.9,0,4.9,2,4.9,4.8c0,2.7-2,4.6-4.9,4.6h-2.3v1.6
				c0,1.4,0.8,2.4,2.2,2.4c1.3,0,2.1-0.9,2.2-2.3c0-0.3,0.2-0.4,0.4-0.4h1.8c0.2,0,0.4,0.2,0.4,0.4c-0.2,2.9-2.1,4.8-4.8,4.8
				C72.2,98.3,70.2,96.3,70.2,93.3z M75.1,89.4c1.4,0,2.2-0.9,2.2-2.2c0-1.5-0.9-2.4-2.3-2.4c-1.4,0-2.2,1-2.2,2.4v2.2H75.1z"/>
			<path class="st2" d="M10.2,111.7v6c0,2.9-1.9,5-4.9,5c-2.9,0-4.9-2.1-4.9-5v-16.4c0-0.2,0.2-0.4,0.4-0.4h1.8
				c0.3,0,0.4,0.2,0.4,0.4v6.5c0.6-0.7,1.5-1.1,2.5-1.1C8.4,106.7,10.2,108.8,10.2,111.7z M7.6,111.6c0-1.4-0.9-2.4-2.3-2.4
				c-1.4,0-2.2,1-2.2,2.4v6.2c0,1.4,0.8,2.4,2.2,2.4c1.4,0,2.3-1,2.3-2.4V111.6z"/>
			<path class="st2" d="M13.2,117.7v-6c0-2.9,1.9-4.9,4.9-4.9c2.9,0,4.9,2,4.9,4.8c0,2.7-2,4.6-4.9,4.6h-2.3v1.6
				c0,1.4,0.8,2.4,2.2,2.4c1.3,0,2.1-0.9,2.2-2.3c0-0.3,0.2-0.4,0.4-0.4h1.8c0.2,0,0.4,0.2,0.4,0.4c-0.2,2.9-2.1,4.8-4.8,4.8
				C15.2,122.7,13.2,120.7,13.2,117.7z M18.1,113.8c1.4,0,2.2-0.9,2.2-2.2c0-1.5-0.9-2.4-2.3-2.4c-1.4,0-2.2,1-2.2,2.4v2.2H18.1z"/>
			<path class="st2" d="M25.8,117.7v-6c0-2.9,1.9-4.9,4.9-4.9c2.9,0,4.9,2,4.9,4.8c0,2.7-2,4.6-4.9,4.6h-2.3v1.6
				c0,1.4,0.8,2.4,2.2,2.4c1.3,0,2.1-0.9,2.2-2.3c0-0.3,0.2-0.4,0.4-0.4h1.8c0.2,0,0.4,0.2,0.4,0.4c-0.2,2.9-2.1,4.8-4.8,4.8
				C27.8,122.7,25.8,120.7,25.8,117.7z M30.7,113.8c1.4,0,2.2-0.9,2.2-2.2c0-1.5-0.9-2.4-2.3-2.4c-1.4,0-2.2,1-2.2,2.4v2.2H30.7z"/>
			<path class="st2" d="M38.7,122v-20.6c0-0.2,0.2-0.4,0.4-0.4H41c0.3,0,0.4,0.2,0.4,0.4v6.5c0.6-0.6,1.4-1.1,2.5-1.1
				c2.8,0,4.6,2.1,4.6,5.1V122c0,0.3-0.2,0.4-0.4,0.4h-1.8c-0.3,0-0.4-0.2-0.4-0.4v-10.3c0-1.5-0.8-2.5-2.2-2.5
				c-1.3,0-2.2,1-2.2,2.5V122c0,0.3-0.2,0.4-0.4,0.4h-1.8C38.9,122.4,38.7,122.2,38.7,122z"/>
			<path class="st2" d="M51.9,103.6c0-0.9,0.6-1.6,1.6-1.6c0.9,0,1.6,0.7,1.6,1.6c0,0.8-0.7,1.6-1.6,1.6
				C52.5,105.1,51.9,104.5,51.9,103.6z M52.1,122v-14.5c0-0.2,0.2-0.4,0.4-0.4h1.8c0.3,0,0.4,0.2,0.4,0.4V122c0,0.3-0.2,0.4-0.4,0.4
				h-1.8C52.3,122.4,52.1,122.2,52.1,122z"/>
			<path class="st2" d="M66.1,107.1H68c0.3,0,0.4,0.2,0.4,0.5l-3.5,13.9c-0.2,0.7-0.6,1.1-1.4,1.1h-1.3c-0.8,0-1.2-0.4-1.4-1.1
				l-3.5-13.9c-0.1-0.3,0.1-0.5,0.3-0.5h1.9c0.2,0,0.4,0.1,0.5,0.4l2.8,12.6l2.8-12.6C65.7,107.2,65.8,107.1,66.1,107.1z"/>
			<path class="st2" d="M70.3,117.7v-6c0-2.9,1.9-4.9,4.9-4.9c2.9,0,4.9,2,4.9,4.8c0,2.7-2,4.6-4.9,4.6h-2.3v1.6
				c0,1.4,0.8,2.4,2.2,2.4c1.3,0,2.1-0.9,2.2-2.3c0-0.3,0.2-0.4,0.4-0.4h1.8c0.2,0,0.4,0.2,0.4,0.4c-0.2,2.9-2.1,4.8-4.8,4.8
				C72.2,122.7,70.3,120.7,70.3,117.7z M75.2,113.8c1.4,0,2.2-0.9,2.2-2.2c0-1.5-0.9-2.4-2.3-2.4c-1.4,0-2.2,1-2.2,2.4v2.2H75.2z"/>
		</g>
	</g>
</g>
</svg>
