<svg version="1.1"
	 xmlns="http://www.w3.org/2000/svg" xmlns:xlink="http://www.w3.org/1999/xlink" xmlns:a="http://ns.adobe.com/AdobeSVGViewerExtensions/3.0/"
	 x="0px" y="0px" width="84.5px" height="40.7px" viewBox="0 0 84.5 40.7" style="enable-background:new 0 0 84.5 40.7;"
	 xml:space="preserve">
<style type="text/css">
	.st0{fill:#F9F9F9;}
	.st1{fill:#594A42;}
</style>
<defs>
</defs>
<g id="XMLID_15_">
	<path id="XMLID_19_" class="st0" d="M84,20.3c0-11-8.8-19.8-19.7-19.8c-7.2,0-13.5,3.9-17,9.6c-0.4,0-0.8-0.1-1.3-0.1
		c-4.7,0-8.8,2.7-10.9,6.6c-2.4-7-9-12-16.8-12c-9.8,0-17.8,8-17.8,17.8c0,9.5,7.4,17.3,16.9,17.8l49-0.1C76.4,38.8,84,30.5,84,20.3
		z"/>
	<path id="XMLID_16_" class="st1" d="M17.4,40.7C7.7,40.2,0,32.2,0,22.4C0,12.3,8.2,4.2,18.3,4.2c7.4,0,14.1,4.5,16.9,11.3
		c2.5-4,7.1-6.3,11.8-5.9C50.8,3.6,57.2,0,64.2,0c11.2,0,20.2,9.1,20.2,20.3c0,10.2-7.7,18.9-18,20.2L17.4,40.7z M18.3,5.2
		C8.8,5.2,1,12.9,1,22.4c0,9.3,7.2,16.8,16.5,17.3l49-0.1c9.7-1.2,17.1-9.5,17.1-19.2C83.5,9.7,74.9,1,64.2,1
		c-6.8,0-13,3.5-16.5,9.4l-0.2,0.3l-0.3,0c-0.4,0-0.8-0.1-1.2-0.1c-4.4,0-8.4,2.4-10.5,6.3l-0.5,1l-0.4-1.1
		C32.2,9.8,25.7,5.2,18.3,5.2z"/>
</g>
</svg>
